\relax 
\citation{shazam}
\citation{jSymboilic}
\@writefile{toc}{\contentsline {section}{\numberline {I}Introduction}{1}}
\@writefile{toc}{\contentsline {section}{\numberline {II}feature extraction}{1}}
\@writefile{toc}{\contentsline {subsection}{\numberline {\unhbox \voidb@x \hbox {II-A}}statistical feature}{1}}
\@writefile{toc}{\contentsline {subsection}{\numberline {\unhbox \voidb@x \hbox {II-B}}temporal feature}{1}}
\@writefile{lof}{\contentsline {figure}{\numberline {1}{\ignorespaces  Pitch to Time plot of Every Note from a Sample Input }}{1}}
\newlabel{fig:publish1Seg}{{1}{1}}
\@writefile{lof}{\contentsline {figure}{\numberline {2}{\ignorespaces Pitch track of a piece segmented into 8 unit}}{2}}
\newlabel{fig:publish2Feat}{{2}{2}}
\@writefile{toc}{\contentsline {section}{\numberline {III}Methodology and Results}{2}}
\@writefile{toc}{\contentsline {subsection}{\numberline {\unhbox \voidb@x \hbox {III-A}}K-Nearest Neighbors}{2}}
\@writefile{toc}{\contentsline {subsubsection}{\numberline {\unhbox \voidb@x \hbox {III-A}1}jSymbolic Extension}{2}}
\@writefile{toc}{\contentsline {subsubsection}{\numberline {\unhbox \voidb@x \hbox {III-A}2}Song Object Creation}{2}}
\@writefile{lof}{\contentsline {figure}{\numberline {3}{\ignorespaces Music Recognition User Interface }}{2}}
\newlabel{fig:gui}{{3}{2}}
\@writefile{toc}{\contentsline {subsubsection}{\numberline {\unhbox \voidb@x \hbox {III-A}3}User Interface}{2}}
\@writefile{toc}{\contentsline {subsubsection}{\numberline {\unhbox \voidb@x \hbox {III-A}4}Results}{2}}
\@writefile{toc}{\contentsline {subsection}{\numberline {\unhbox \voidb@x \hbox {III-B}}Redundant Features Removal}{3}}
\@writefile{toc}{\contentsline {subsubsection}{\numberline {\unhbox \voidb@x \hbox {III-B}1} feature synthesis}{3}}
\@writefile{toc}{\contentsline {subsection}{\numberline {\unhbox \voidb@x \hbox {III-C}}Author Identification}{3}}
\@writefile{toc}{\contentsline {subsubsection}{\numberline {\unhbox \voidb@x \hbox {III-C}1}support vector machine (SVM)}{3}}
\@writefile{toc}{\contentsline {subsubsection}{\numberline {\unhbox \voidb@x \hbox {III-C}2}Leave-one-out cross-validation}{3}}
\citation{bishop2006pattern}
\bibcite{jSymboilic}{1}
\bibcite{shazam}{2}
\bibcite{bishop2006pattern}{3}
\@writefile{lof}{\contentsline {figure}{\numberline {4}{\ignorespaces  PCA analysis over two components }}{4}}
\newlabel{fig:publish3Pca}{{4}{4}}
\newlabel{sec:discrClass}{{\unhbox \voidb@x \hbox {III-C}3}{4}}
\@writefile{toc}{\contentsline {subsubsection}{\numberline {\unhbox \voidb@x \hbox {III-C}3}discriminant analysis classification }{4}}
\newlabel{eq:define}{{3}{4}}
\@writefile{toc}{\contentsline {subsubsection}{\numberline {\unhbox \voidb@x \hbox {III-C}4}Leave-one-out cross-validation}{4}}
\@writefile{toc}{\contentsline {section}{\numberline {IV}Conclusion}{4}}
\@writefile{toc}{\contentsline {section}{References}{4}}
\@writefile{toc}{\contentsline {section}{\numberline {V}Appendix}{4}}
\@writefile{lof}{\contentsline {figure}{\numberline {5}{\ignorespaces  Feature Value distribution across music database }}{5}}
\newlabel{fig:allfeat}{{5}{5}}
\@writefile{lot}{\contentsline {table}{\numberline {I}{\ignorespaces Results for Varying Feature Space size over 20 Test Input (the second half of the timing results is not shown as it did not show much variation)}}{5}}
\newlabel{fresultl}{{I}{5}}
\@writefile{lof}{\contentsline {figure}{\numberline {6}{\ignorespaces  List of Features Extracted from jSymbolic }}{5}}
\newlabel{fig:featuretable}{{6}{5}}
