%!PS-Adobe-3.0 
%%Creator: MATLAB, The MathWorks, Inc. Version 8.0.0.783 (R2012b). Operating System: Linux 3.13.0-24-generic #47-Ubuntu SMP Fri May 2 23:30:00 UTC 2014 x86_64.
%%Title: ./melody5.eps
%%CreationDate: 04/05/2015  23:49:29
%%DocumentNeededFonts: Helvetica
%%DocumentProcessColors: Cyan Magenta Yellow Black
%%LanguageLevel: 2
%%Pages: (atend)
%%BoundingBox: (atend)
%%EndComments

%%BeginProlog
% MathWorks dictionary
/MathWorks 160 dict begin
% definition operators
/bdef {bind def} bind def
/ldef {load def} bind def
/xdef {exch def} bdef
/xstore {exch store} bdef
% operator abbreviations
/c  /clip ldef
/cc /concat ldef
/cp /closepath ldef
/gr /grestore ldef
/gs /gsave ldef
/mt /moveto ldef
/np /newpath ldef
/cm /currentmatrix ldef
/sm /setmatrix ldef
/rm /rmoveto ldef
/rl /rlineto ldef
/s {show newpath} bdef
/sc {setcmykcolor} bdef
/sr /setrgbcolor ldef
/sg /setgray ldef
/w /setlinewidth ldef
/j /setlinejoin ldef
/cap /setlinecap ldef
/rc {rectclip} bdef
/rf {rectfill} bdef
% page state control
/pgsv () def
/bpage {/pgsv save def} bdef
/epage {pgsv restore} bdef
/bplot /gsave ldef
/eplot {stroke grestore} bdef
% orientation switch
/portraitMode 0 def /landscapeMode 1 def /rotateMode 2 def
% coordinate system mappings
/dpi2point 0 def
% font control
/FontSize 0 def
/FMS {/FontSize xstore findfont [FontSize 0 0 FontSize neg 0 0]
  makefont setfont} bdef
/reencode {exch dup where {pop load} {pop StandardEncoding} ifelse
  exch dup 3 1 roll findfont dup length dict begin
  { 1 index /FID ne {def}{pop pop} ifelse } forall
  /Encoding exch def currentdict end definefont pop} bdef
/isroman {findfont /CharStrings get /Agrave known} bdef
/FMSR {3 1 roll 1 index dup isroman {reencode} {pop pop} ifelse
  exch FMS} bdef
/csm {1 dpi2point div -1 dpi2point div scale neg translate
 dup landscapeMode eq {pop -90 rotate}
  {rotateMode eq {90 rotate} if} ifelse} bdef
% line types: solid, dotted, dashed, dotdash
/SO { [] 0 setdash } bdef
/DO { [.5 dpi2point mul 4 dpi2point mul] 0 setdash } bdef
/DA { [6 dpi2point mul] 0 setdash } bdef
/DD { [.5 dpi2point mul 4 dpi2point mul 6 dpi2point mul 4
  dpi2point mul] 0 setdash } bdef
% macros for lines and objects
/L {lineto stroke} bdef
/MP {3 1 roll moveto 1 sub {rlineto} repeat} bdef
/AP {{rlineto} repeat} bdef
/PDlw -1 def
/W {/PDlw currentlinewidth def setlinewidth} def
/PP {closepath eofill} bdef
/DP {closepath stroke} bdef
/MR {4 -2 roll moveto dup  0 exch rlineto exch 0 rlineto
  neg 0 exch rlineto closepath} bdef
/FR {MR stroke} bdef
/PR {MR fill} bdef
/L1i {{currentfile picstr readhexstring pop} image} bdef
/tMatrix matrix def
/MakeOval {newpath tMatrix currentmatrix pop translate scale
0 0 1 0 360 arc tMatrix setmatrix} bdef
/FO {MakeOval stroke} bdef
/PO {MakeOval fill} bdef
/PD {currentlinewidth 2 div 0 360 arc fill
   PDlw -1 eq not {PDlw w /PDlw -1 def} if} def
/FA {newpath tMatrix currentmatrix pop translate scale
  0 0 1 5 -2 roll arc tMatrix setmatrix stroke} bdef
/PA {newpath tMatrix currentmatrix pop	translate 0 0 moveto scale
  0 0 1 5 -2 roll arc closepath tMatrix setmatrix fill} bdef
/FAn {newpath tMatrix currentmatrix pop translate scale
  0 0 1 5 -2 roll arcn tMatrix setmatrix stroke} bdef
/PAn {newpath tMatrix currentmatrix pop translate 0 0 moveto scale
  0 0 1 5 -2 roll arcn closepath tMatrix setmatrix fill} bdef
/vradius 0 def /hradius 0 def /lry 0 def
/lrx 0 def /uly 0 def /ulx 0 def /rad 0 def
/MRR {/vradius xdef /hradius xdef /lry xdef /lrx xdef /uly xdef
  /ulx xdef newpath tMatrix currentmatrix pop ulx hradius add uly
  vradius add translate hradius vradius scale 0 0 1 180 270 arc 
  tMatrix setmatrix lrx hradius sub uly vradius add translate
  hradius vradius scale 0 0 1 270 360 arc tMatrix setmatrix
  lrx hradius sub lry vradius sub translate hradius vradius scale
  0 0 1 0 90 arc tMatrix setmatrix ulx hradius add lry vradius sub
  translate hradius vradius scale 0 0 1 90 180 arc tMatrix setmatrix
  closepath} bdef
/FRR {MRR stroke } bdef
/PRR {MRR fill } bdef
/MlrRR {/lry xdef /lrx xdef /uly xdef /ulx xdef /rad lry uly sub 2 div def
  newpath tMatrix currentmatrix pop ulx rad add uly rad add translate
  rad rad scale 0 0 1 90 270 arc tMatrix setmatrix lrx rad sub lry rad
  sub translate rad rad scale 0 0 1 270 90 arc tMatrix setmatrix
  closepath} bdef
/FlrRR {MlrRR stroke } bdef
/PlrRR {MlrRR fill } bdef
/MtbRR {/lry xdef /lrx xdef /uly xdef /ulx xdef /rad lrx ulx sub 2 div def
  newpath tMatrix currentmatrix pop ulx rad add uly rad add translate
  rad rad scale 0 0 1 180 360 arc tMatrix setmatrix lrx rad sub lry rad
  sub translate rad rad scale 0 0 1 0 180 arc tMatrix setmatrix
  closepath} bdef
/FtbRR {MtbRR stroke } bdef
/PtbRR {MtbRR fill } bdef
/stri 6 array def /dtri 6 array def
/smat 6 array def /dmat 6 array def
/tmat1 6 array def /tmat2 6 array def /dif 3 array def
/asub {/ind2 exch def /ind1 exch def dup dup
  ind1 get exch ind2 get sub exch } bdef
/tri_to_matrix {
  2 0 asub 3 1 asub 4 0 asub 5 1 asub
  dup 0 get exch 1 get 7 -1 roll astore } bdef
/compute_transform {
  dmat dtri tri_to_matrix tmat1 invertmatrix 
  smat stri tri_to_matrix tmat2 concatmatrix } bdef
/ds {stri astore pop} bdef
/dt {dtri astore pop} bdef
/db {2 copy /cols xdef /rows xdef mul dup 3 mul string
  currentfile 
  3 index 0 eq {/ASCIIHexDecode filter}
  {/ASCII85Decode filter 3 index 2 eq {/RunLengthDecode filter} if }
  ifelse exch readstring pop
  dup 0 3 index getinterval /rbmap xdef
  dup 2 index dup getinterval /gbmap xdef
  1 index dup 2 mul exch getinterval /bbmap xdef pop pop}bdef
/it {gs np dtri aload pop moveto lineto lineto cp c
  cols rows 8 compute_transform 
  rbmap gbmap bbmap true 3 colorimage gr}bdef
/il {newpath moveto lineto stroke}bdef
currentdict end def
%%EndProlog

%%BeginSetup
MathWorks begin

0 cap

end
%%EndSetup

%%Page: 1 1
%%BeginPageSetup
%%PageBoundingBox:    64   215   558   591
MathWorks begin
bpage
%%EndPageSetup

%%BeginObject: obj1
bplot

/dpi2point 12 def
portraitMode 0216 7344 csm

  561   247  5927  4514 rc
85 dict begin %Colortable dictionary
/c0 { 0.000000 0.000000 0.000000 sr} bdef
/c1 { 1.000000 1.000000 1.000000 sr} bdef
/c2 { 0.900000 0.000000 0.000000 sr} bdef
/c3 { 0.000000 0.820000 0.000000 sr} bdef
/c4 { 0.000000 0.000000 0.800000 sr} bdef
/c5 { 0.910000 0.820000 0.320000 sr} bdef
/c6 { 1.000000 0.260000 0.820000 sr} bdef
/c7 { 0.000000 0.820000 0.820000 sr} bdef
c0
1 j
1 sg
   0    0 6913 5186 rf
6 w
0 4226 5356 0 0 -4226 899 4615 4 MP
PP
-5356 0 0 4226 5356 0 0 -4226 899 4615 5 MP stroke
4 w
DO
SO
6 w
0 sg
 899 4615 mt 6255 4615 L
 899  389 mt 6255  389 L
 899 4615 mt  899  389 L
6255 4615 mt 6255  389 L
 899 4615 mt 6255 4615 L
 899 4615 mt  899  389 L
 899 4615 mt  899 4561 L
 899  389 mt  899  442 L
%%IncludeResource: font Helvetica
/Helvetica /ISOLatin1Encoding 120 FMSR

 646 4760 mt 
(-0.0888) s
1664 4615 mt 1664 4561 L
1664  389 mt 1664  442 L
1411 4760 mt 
(-0.0887) s
2429 4615 mt 2429 4561 L
2429  389 mt 2429  442 L
2176 4760 mt 
(-0.0886) s
3194 4615 mt 3194 4561 L
3194  389 mt 3194  442 L
2941 4760 mt 
(-0.0885) s
3959 4615 mt 3959 4561 L
3959  389 mt 3959  442 L
3706 4760 mt 
(-0.0884) s
4724 4615 mt 4724 4561 L
4724  389 mt 4724  442 L
4471 4760 mt 
(-0.0883) s
5489 4615 mt 5489 4561 L
5489  389 mt 5489  442 L
5236 4760 mt 
(-0.0882) s
6255 4615 mt 6255 4561 L
6255  389 mt 6255  442 L
6002 4760 mt 
(-0.0881) s
 899 4615 mt  952 4615 L
6255 4615 mt 6201 4615 L
 561 4659 mt 
(-0.25) s
 899 4086 mt  952 4086 L
6255 4086 mt 6201 4086 L
 628 4130 mt 
(-0.2) s
 899 3558 mt  952 3558 L
6255 3558 mt 6201 3558 L
 561 3602 mt 
(-0.15) s
 899 3030 mt  952 3030 L
6255 3030 mt 6201 3030 L
 628 3074 mt 
(-0.1) s
 899 2502 mt  952 2502 L
6255 2502 mt 6201 2502 L
 561 2546 mt 
(-0.05) s
 899 1973 mt  952 1973 L
6255 1973 mt 6201 1973 L
 798 2017 mt 
(0) s
 899 1445 mt  952 1445 L
6255 1445 mt 6201 1445 L
 631 1489 mt 
(0.05) s
 899  917 mt  952  917 L
6255  917 mt 6201  917 L
 698  961 mt 
(0.1) s
 899  389 mt  952  389 L
6255  389 mt 6201  389 L
 631  433 mt 
(0.15) s
 899 4615 mt 6255 4615 L
 899  389 mt 6255  389 L
 899 4615 mt  899  389 L
6255 4615 mt 6255  389 L
gs 899 389 5357 4227 rc
gs 993 727 4118 3672 rc
24 W
/c8 { 0.000000 0.000000 1.000000 sr} bdef
c8
4120 1843 PD
24 W
4751 1853 PD
24 W
4850 1855 PD
24 W
3904 2298 PD
24 W
4779 1783 PD
24 W
5037 1823 PD
24 W
4683 2287 PD
24 W
4664 2911 PD
24 W
5037 1823 PD
24 W
4575 978 PD
24 W
5037 1823 PD
24 W
4398 2897 PD
24 W
4484 2909 PD
24 W
3630 3864 PD
24 W
2166 4256 PD
24 W
1066 4325 PD
24 W
3478 3821 PD
24 W
3229 1768 PD
24 W
2297 1261 PD
24 W
1760 1193 PD
24 W
3236 878 PD
24 W
3033 800 PD
24 W
2583 881 PD
24 W
3642 1288 PD
24 W
3722 1619 PD
24 W
3660 2084 PD
24 W
3994 1695 PD
24 W
3555 1394 PD
24 W
4620 1728 PD
24 W
4861 1772 PD
24 W
4751 1853 PD
24 W
4728 1878 PD
24 W
5037 1823 PD
24 W
4683 2287 PD
24 W
4664 2911 PD
24 W
5037 1823 PD
24 W
4575 978 PD
24 W
5037 1823 PD
24 W
4850 1855 PD
24 W
4654 1835 PD
24 W
4779 1783 PD
24 W
5037 1823 PD
24 W
4664 2911 PD
24 W
5037 1823 PD
24 W
4575 978 PD
24 W
5037 1823 PD
24 W
4664 2911 PD
24 W
4484 2909 PD
24 W
3630 3864 PD
24 W
2166 4256 PD
24 W
1066 4325 PD
24 W
3478 3821 PD
24 W
3924 2823 PD
24 W
3391 1875 PD
24 W
2155 1365 PD
24 W
3869 1120 PD
24 W
4406 1028 PD
24 W
4575 978 PD
24 W
4411 1315 PD
24 W
4052 944 PD
24 W
3713 1309 PD
24 W
3674 1724 PD
24 W
4411 1315 PD
24 W
3948 1801 PD
24 W
4269 1421 PD
24 W
4458 1331 PD
24 W
4088 1279 PD
24 W
3717 1350 PD
24 W
4301 1295 PD
24 W
4354 1408 PD
24 W
5037 1823 PD
24 W
4619 1315 PD
24 W
4705 1723 PD
24 W
4357 1661 PD
24 W
4238 1910 PD
24 W
5037 1823 PD
gr

c8
gs 1687 727 2029 635 rc
0 sg
  36   36 1760 1193 FO
  36   36 3236  878 FO
  36   36 3033  800 FO
  36   36 2583  881 FO
  36   36 3642 1288 FO
gr

0 sg
gr

 882 4658 mt 
( ) s
6239  431 mt 
( ) s
1 sg
0 334 959 0 0 -334 5236 783 4 MP
PP
-959 0 0 334 959 0 0 -334 5236 783 5 MP stroke
4 w
DO
SO
6 w
0 sg
5236  783 mt 6195  783 L
5236  449 mt 6195  449 L
5236  783 mt 5236  449 L
6195  783 mt 6195  449 L
5236  783 mt 6195  783 L
5236  783 mt 5236  449 L
5236  783 mt 6195  783 L
5236  449 mt 6195  449 L
5236  783 mt 5236  449 L
6195  783 mt 6195  449 L
5721  585 mt 
(all) s
gs 5236 449 960 335 rc
gs 5423 469 147 147 rc
24 W
c8
5496 542 PD
gr

c8
gr

c8
0 sg
5721  732 mt 
(melody5) s
gs 5236 449 960 335 rc
gs 5423 616 147 147 rc
  36   36 5496  689 FO
gr

gr


end %%Color Dict

eplot
%%EndObject

epage
end

showpage

%%Trailer
%%BoundingBox:    64   215   558   591
%%Pages: 001
%%EOF
