0 67
0 71
1 62
240 71
240 67
240 62
240 67
240 71
241 62
360 62
360 67
360 66
480 66
480 71
480 65
480 71
720 71
720 65
720 64
720 71
840 64
840 63
960 63
960 71
960 62
960 66
960 72
1200 72
1200 66
1200 62
1200 66
1200 72
1320 66
1320 62
1440 62
1440 72
1440 62
1440 67
1440 71
1680 71
1680 67
1680 62
1680 62
1680 67
1680 71
1800 67
1800 62
1800 66
1920 66
1920 71
1920 65
1920 71
2160 71
2160 65
2160 64
2160 71
2280 64
2280 63
2400 63
2400 71
2400 62
2400 66
2400 72
2640 72
2640 66
2640 62
2640 66
2640 72
2760 66
2760 62
2880 62
2880 72
2880 67
2880 71
2880 74
2880 79
3840 79
3840 67
3840 71
3840 74
3840 66
3840 72
3840 78
4200 78
4200 72
4200 66
4200 74
4320 74
4320 76
4320 67
4320 71
4560 76
4560 76
4640 76
4640 78
4720 78
4720 76
4800 76
4800 74
5280 74
5280 71
5280 67
5280 60
5280 72
5280 62
5280 66
5280 69
5640 69
5640 62
5640 60
5640 72
5640 66
5640 69
5760 69
5760 71
5760 62
5760 67
5880 71
5880 72
6000 72
6000 74
6240 74
6240 74
6480 67
6480 62
6480 59
6600 59
6600 62
6720 62
6720 74
6720 60
6840 60
6840 62
6960 62
6960 60
7080 60
7080 62
7200 62
7200 59
7440 59
7440 59
7440 62
7560 62
7560 64
7680 64
7680 62
7800 62
7800 64
7920 64
7920 67
8040 67
8040 64
8160 64
8160 59
8160 60
8160 66
8400 66
8400 64
8520 64
8520 62
8640 62
8640 60
8640 67
8640 71
8640 74
8640 79
9600 79
9600 67
9600 71
9600 74
9600 66
9600 72
9600 78
9960 78
9960 72
9960 66
9960 74
10080 74
10080 76
10080 67
10080 71
10320 76
10320 76
10400 76
10400 78
10480 78
10480 76
10560 76
10560 74
11040 74
11040 71
11040 67
11040 60
11040 72
11040 62
11040 66
11040 69
11400 69
11400 62
11400 60
11400 72
11400 66
11400 69
11520 69
11520 71
11520 62
11520 67
11640 71
11640 72
11760 72
11760 74
12000 74
12000 74
12240 67
12240 62
12240 59
12360 59
12360 62
12480 62
12480 74
12480 60
12600 60
12600 62
12720 62
12720 60
12840 60
12840 62
12960 62
12960 59
13200 59
13200 59
13200 62
13320 62
13320 64
13440 64
13440 62
13560 62
13560 64
13680 64
13680 67
13800 67
13800 64
13920 64
13920 59
13920 60
13920 66
14160 66
14160 64
14280 64
14280 62
14400 62
14400 60
14400 67
14400 74
14400 79
15360 79
15360 74
15360 67
15360 65
15360 69
15360 77
15720 77
15720 69
15720 65
15720 72
15840 72
15840 74
15840 65
15840 70
16080 74
16080 74
16200 74
16200 75
16320 75
16320 77
16800 77
16800 70
16800 65
16800 75
16800 65
16800 69
17160 69
17160 65
17160 75
17160 72
17280 72
17280 74
17280 70
17280 65
17400 74
17400 75
17520 75
17520 74
17640 74
17640 75
17760 75
17760 77
17880 77
17880 79
18000 79
18000 81
18120 81
18120 79
18240 79
18240 65
18240 70
18240 69
18240 77
18360 77
18360 75
18480 75
18480 74
18600 74
18600 72
18720 72
18720 69
18720 74
18720 70
18720 65
18840 74
18840 75
18960 75
18960 74
19080 74
19080 75
19200 75
19200 77
19320 77
19320 79
19440 79
19440 81
19560 81
19560 79
19680 79
19680 65
19680 70
19680 69
19680 77
19800 77
19800 75
19920 75
19920 74
20040 74
20040 72
20160 72
20160 69
20160 65
20160 70
20160 74
21120 74
21120 70
21120 65
21120 72
21120 62
21120 66
21120 74
21360 74
21360 72
21360 74
21480 74
21480 72
21600 72
21600 66
21600 62
21600 62
21600 67
21600 71
22320 71
22320 72
22440 72
22440 74
22560 74
22560 67
22560 62
22560 67
22560 72
22560 75
22800 75
22800 77
22920 77
22920 75
23040 75
23040 72
23040 67
23040 67
23040 74
23280 74
23280 71
23400 71
23400 72
23520 72
23520 67
23520 71
23520 67
23520 74
23760 74
23760 71
23760 71
23880 71
23880 72
24000 72
24000 67
24000 62
24000 66
24000 71
24240 71
24240 69
24360 69
24360 71
24480 71
24480 66
24480 62
24480 62
24480 67
24720 67
24720 62
24720 62
24720 67
24720 71
24840 67
24840 62
24840 66
24960 66
24960 71
24960 65
24960 71
25200 71
25200 65
25200 64
25200 71
25320 64
25320 63
25440 63
25440 71
25440 62
25440 66
25440 72
25680 72
25680 66
25680 62
25680 66
25680 72
25800 66
25800 62
25920 62
25920 72
25920 62
25920 67
25920 71
26160 71
26160 67
26160 62
26160 62
26160 67
26160 71
26280 67
26280 62
26280 66
26400 66
26400 71
26400 65
26400 71
26640 71
26640 65
26640 64
26640 71
26760 64
26760 63
26880 63
26880 71
26880 62
26880 66
26880 72
27120 72
27120 66
27120 62
27120 66
27120 72
27240 66
27240 62
27360 62
27360 72
27360 62
27360 67
27360 71
27600 71
27600 67
27600 62
27600 62
27600 67
27600 71
27720 67
27720 62
27720 66
27840 66
27840 71
27840 62
27840 67
27840 71
28080 71
28080 67
28080 62
28080 71
28080 67
28080 74
28200 67
28200 71
28200 70
28320 70
28320 74
28320 67
28320 71
28320 74
28560 74
28560 71
28560 67
28560 71
28560 74
28560 79
28680 74
28680 71
28680 73
28800 73
28800 79
28800 74
28800 79
28800 83
29040 83
29040 79
29040 74
29040 74
29040 79
29040 83
29160 79
29160 74
29160 78
29280 78
29280 83
29280 74
29280 79
29280 83
29520 83
29520 79
29520 74
29520 83
29520 79
29520 86
29640 79
29640 83
29640 82
29760 82
29760 86
29760 79
29760 83
29760 86
30000 86
30000 83
30000 79
30000 83
30000 86
30000 91
30120 86
30120 83
30120 85
30240 85
30240 91
30240 83
30240 86
30240 91
30480 91
30480 86
30480 83
30480 83
30480 86
30480 91
30600 86
30600 83
30600 82
30720 82
30720 91
30720 83
30720 86
30720 91
30960 91
30960 86
30960 83
30960 83
30960 86
30960 91
31080 86
31080 83
31080 82
31200 82
31200 91
31200 83
31200 86
31200 91
31440 91
31440 86
31440 83
31440 83
31440 86
31440 91
31560 86
31560 83
31560 82
31680 82
31680 91
31680 83
31680 86
31680 91
31920 91
31920 86
31920 83
31920 83
31920 86
31920 91
32040 86
32040 83
32040 82
32160 82
32160 91
32160 83
32160 86
32160 91
32400 91
32400 86
32400 83
32400 83
32400 86
32400 91
32520 86
32520 83
32520 82
32640 82
32640 91
32640 83
32640 86
32640 91
32880 91
32880 86
32880 83
32880 83
32880 86
32880 91
33000 86
33000 83
33000 82
33120 82
33120 91
33120 83
33120 86
33120 91
33600 91
33600 86
33600 83
36000 75
36000 79
36000 82
36000 87
36960 87
36960 75
36960 79
36960 82
36960 74
36960 80
36960 86
37320 86
37320 80
37320 74
37320 82
37440 82
37440 84
37440 75
37440 79
37680 84
37680 84
37760 84
37760 86
37840 86
37840 84
37920 84
37920 82
38400 82
38400 79
38400 75
38400 80
38400 70
38400 74
38760 74
38760 70
38760 80
38760 77
38880 77
38880 79
38880 70
38880 75
39000 79
39000 80
39120 80
39120 82
39360 82
39360 82
39600 75
39600 70
39600 55
39720 55
39720 58
39840 58
39840 82
39840 56
39960 56
39960 58
40080 58
40080 56
40200 56
40200 58
40320 58
40320 55
40560 55
40560 55
40560 58
40680 58
40680 60
40800 60
40800 58
40920 58
40920 60
41040 60
41040 63
41160 63
41160 60
41280 60
41280 55
41280 56
41280 62
41520 62
41520 60
41640 60
41640 58
41760 58
41760 56
41760 75
41760 79
41760 82
41760 87
42720 87
42720 75
42720 79
42720 82
42720 74
42720 80
42720 86
43080 86
43080 80
43080 74
43080 82
43200 82
43200 84
43200 75
43200 79
43440 84
43440 84
43520 84
43520 86
43600 86
43600 84
43680 84
43680 82
44160 82
44160 79
44160 75
44160 67
44160 81
44160 69
44160 73
44520 73
44520 67
44520 81
44520 69
44520 79
44640 79
44640 78
44640 69
44640 74
44760 78
44760 79
44880 79
44880 81
45120 81
45120 81
45360 74
45360 69
45360 54
45480 54
45480 57
45600 57
45600 81
45600 55
45720 55
45720 57
45840 57
45840 55
45960 55
45960 57
46080 57
46080 54
46320 54
46320 54
46320 57
46440 57
46440 59
46560 59
46560 57
46680 57
46680 59
46800 59
46800 57
46920 57
46920 59
47040 59
47040 54
47040 55
47040 61
47280 61
47280 59
47400 59
47400 57
47520 57
47520 55
47520 74
47520 78
47520 81
47520 86
48480 86
48480 74
48480 78
48480 81
48480 73
48480 79
48480 85
48840 85
48840 79
48840 73
48840 81
48960 81
48960 83
48960 74
48960 78
49200 83
49200 83
49280 83
49280 85
49360 85
49360 83
49440 83
49440 81
49920 81
49920 78
49920 74
49920 67
49920 79
49920 69
49920 73
50280 73
50280 67
50280 79
50280 69
50280 76
50400 76
50400 78
50400 69
50400 74
50520 78
50520 79
50640 79
50640 81
50880 81
50880 81
51120 74
51120 69
51120 54
51240 54
51240 57
51360 57
51360 81
51360 55
51480 55
51480 57
51600 57
51600 55
51720 55
51720 57
51840 57
51840 54
52080 54
52080 54
52080 57
52200 57
52200 59
52320 59
52320 57
52440 57
52440 59
52560 59
52560 62
52680 62
52680 59
52800 59
52800 54
52800 55
52800 61
53040 61
53040 59
53160 59
53160 57
53280 57
53280 55
53280 74
53280 78
53280 81
53280 86
54240 86
54240 74
54240 78
54240 81
54240 73
54240 79
54240 85
54600 85
54600 79
54600 73
54600 69
54600 81
54720 81
54720 69
54720 71
54720 83
54720 74
54720 78
55440 78
55440 71
55440 83
55440 74
55440 74
55440 86
55680 86
55680 74
55680 85
55680 73
55680 79
56040 79
56040 73
56040 85
56040 69
56040 81
56160 81
56160 69
56160 71
56160 83
56160 74
56160 78
56880 78
56880 71
56880 83
56880 74
56880 74
56880 86
57120 86
57120 74
57120 84
57120 72
57120 79
57480 79
57480 72
57480 84
57480 69
57480 81
57600 81
57600 69
57600 72
57690 72
57720 74
57810 74
57840 75
57930 75
57960 77
58050 77
58080 75
58170 75
58200 77
58290 77
58320 75
58410 75
58440 74
58530 74
58560 72
58650 72
58680 74
58770 74
58800 72
58890 72
58920 70
59010 70
59040 69
59130 69
59160 70
59250 70
59280 72
59370 72
59400 74
59490 74
59520 72
59610 72
59640 74
59730 74
59760 72
59850 72
59880 70
59970 70
60000 69
60090 69
60120 70
60210 70
60240 69
60330 69
60360 67
60450 67
60480 66
60570 66
60600 67
60690 67
60720 69
60810 69
60840 70
60930 70
60960 72
61050 72
61080 70
61170 70
61200 69
61290 69
61320 67
61410 67
61440 65
61530 65
61560 67
61650 67
61680 65
61770 65
61800 63
61890 63
61920 62
61920 66
61920 69
61920 74
62160 74
62160 62
62160 66
62160 69
62160 66
62160 69
62160 74
62160 78
62400 78
62400 66
62400 69
62400 74
62400 69
62400 74
62400 78
62400 81
62640 81
62640 69
62640 74
62640 78
62640 86
62640 81
62640 78
62640 74
62880 74
62880 86
62880 81
62880 78
62880 87
62880 91
62880 94
62880 99
63120 99
63120 87
63120 91
63120 94
63120 63
63120 67
63120 70
63120 75
63360 75
63360 63
63360 67
63360 70
63360 62
63360 66
63360 69
63360 74
63600 74
63600 62
63600 66
63600 69
63600 66
63600 69
63600 74
63600 78
63840 78
63840 66
63840 69
63840 74
63840 69
63840 74
63840 78
63840 81
64080 81
64080 69
64080 74
64080 78
64080 86
64080 81
64080 78
64080 74
64320 74
64320 86
64320 81
64320 78
64320 87
64320 91
64320 94
64320 99
64560 99
64560 87
64560 91
64560 94
64560 63
64560 67
64560 70
64560 75
64800 75
64800 63
64800 67
64800 70
64800 57
64800 62
64800 66
65040 66
65040 62
65040 57
65040 57
65040 62
65040 66
65160 62
65160 57
65160 61
65280 61
65280 66
65280 60
65280 66
65520 66
65520 60
65520 59
65520 66
65640 59
65640 58
65760 58
65760 66
65760 57
65760 61
65760 67
66000 67
66000 61
66000 57
66000 61
66000 67
66120 61
66120 57
66240 57
66240 67
66240 57
66240 62
66240 66
66480 66
66480 62
66480 57
66480 57
66480 62
66480 66
66600 62
66600 57
66600 61
66720 61
66720 66
66720 60
66720 66
66960 66
66960 60
66960 59
66960 66
67080 59
67080 58
67200 58
67200 66
67200 57
67200 61
67200 67
67440 67
67440 61
67440 57
67440 61
67440 67
67560 61
67560 57
67680 57
67680 67
67680 57
67680 62
67680 66
68160 66
68160 62
68160 57
69120 72
69120 74
69120 78
69120 81
69120 86
69360 86
69360 78
69360 72
69360 74
69360 81
69360 72
69360 74
69360 78
69360 81
69360 86
69480 86
69480 78
69480 72
69480 74
69480 81
69480 72
69480 74
69480 78
69480 81
69480 86
69600 86
69600 78
69600 72
69600 74
69600 81
69600 72
69600 74
69600 78
69600 81
69600 86
69840 86
69840 78
69840 72
69840 74
69840 81
69840 72
69840 74
69840 78
69840 81
69840 86
69960 86
69960 78
69960 72
69960 74
69960 81
69960 72
69960 74
69960 78
69960 81
69960 86
70080 86
70080 78
70080 72
70080 74
70080 81
70080 72
70080 74
70080 78
70080 81
70080 86
70320 86
70320 78
70320 72
70320 74
70320 81
70320 72
70320 74
70320 78
70320 81
70320 86
70440 86
70440 78
70440 72
70440 74
70440 81
70440 72
70440 74
70440 78
70440 81
70440 86
70560 86
70560 78
70560 72
70560 74
70560 81
70605 74
70620 79
70635 83
70650 86
70665 91
70800 91
70800 83
70800 74
70800 79
70800 86
70800 62
70800 67
70800 71
70920 67
70920 62
70920 66
71040 66
71040 71
71040 65
71040 71
71280 71
71280 65
71280 64
71280 71
71400 64
71400 63
71520 63
71520 71
71520 62
71520 66
71520 72
71760 72
71760 66
71760 62
71760 66
71760 72
71880 66
71880 62
72000 62
72000 72
72000 62
72000 67
72000 71
72240 71
72240 67
72240 62
72240 62
72240 67
72240 71
72360 67
72360 62
72360 66
72480 66
72480 71
72480 65
72480 71
72720 71
72720 65
72720 64
72720 71
72840 64
72840 63
72960 63
72960 71
72960 62
72960 66
72960 72
73200 72
73200 66
73200 62
73200 66
73200 72
73320 66
73320 62
73440 62
73440 72
73440 67
73440 71
73440 74
73440 79
74400 79
74400 67
74400 71
74400 74
74400 66
74400 72
74400 78
74760 78
74760 72
74760 66
74760 74
74880 74
74880 76
74880 67
74880 71
75120 76
75120 76
75200 76
75200 78
75280 78
75280 76
75360 76
75360 74
75840 74
75840 71
75840 67
75840 60
75840 72
75840 62
75840 66
75840 69
76200 69
76200 62
76200 60
76200 72
76200 66
76200 69
76320 69
76320 71
76320 62
76320 67
76440 71
76440 72
76560 72
76560 74
76800 74
76800 74
77040 67
77040 62
77040 59
77160 59
77160 62
77280 62
77280 74
77280 60
77400 60
77400 62
77520 62
77520 60
77640 60
77640 62
77760 62
77760 59
78000 59
78000 59
78000 62
78120 62
78120 64
78240 64
78240 62
78360 62
78360 64
78480 64
78480 67
78600 67
78600 64
78720 64
78720 59
78720 60
78720 66
78960 66
78960 64
79080 64
79080 62
79200 62
79200 60
79200 67
79200 71
79200 74
79200 79
80160 79
80160 67
80160 71
80160 74
80160 66
80160 72
80160 78
80520 78
80520 72
80520 66
80520 74
80640 74
80640 76
80640 67
80640 71
80880 76
80880 76
80960 76
80960 78
81040 78
81040 76
81120 76
81120 74
81600 74
81600 71
81600 67
81600 60
81600 72
81600 62
81600 66
81600 69
81960 69
81960 62
81960 60
81960 72
81960 66
81960 69
82080 69
82080 71
82080 62
82080 67
82200 71
82200 72
82320 72
82320 74
82560 74
82560 74
82800 67
82800 62
82800 59
82920 59
82920 62
83040 62
83040 74
83040 60
83160 60
83160 62
83280 62
83280 60
83400 60
83400 62
83520 62
83520 59
83760 59
83760 59
83760 62
83880 62
83880 64
84000 64
84000 62
84120 62
84120 64
84240 64
84240 67
84360 67
84360 64
84480 64
84480 59
84480 60
84480 66
84720 66
84720 64
84840 64
84840 62
84960 62
84960 60
84960 67
84960 74
84960 79
85920 79
85920 74
85920 67
85920 65
85920 69
85920 77
86280 77
86280 69
86280 65
86280 72
86400 72
86400 74
86400 65
86400 70
86640 74
86640 74
86760 74
86760 75
86880 75
86880 77
87360 77
87360 70
87360 65
87360 75
87360 65
87360 69
87720 69
87720 65
87720 75
87720 72
87840 72
87840 74
87840 70
87840 65
87960 74
87960 75
88080 75
88080 74
88200 74
88200 75
88320 75
88320 77
88440 77
88440 79
88560 79
88560 81
88680 81
88680 79
88800 79
88800 65
88800 70
88800 69
88800 77
88920 77
88920 75
89040 75
89040 74
89160 74
89160 72
89280 72
89280 69
89280 74
89280 70
89280 65
89400 74
89400 75
89520 75
89520 74
89640 74
89640 75
89760 75
89760 77
89880 77
89880 79
90000 79
90000 81
90120 81
90120 79
90240 79
90240 65
90240 70
90240 69
90240 77
90360 77
90360 75
90480 75
90480 74
90600 74
90600 72
90720 72
90720 69
90720 65
90720 70
90720 74
91680 74
91680 70
91680 65
91680 72
91680 62
91680 66
91680 74
91920 74
91920 72
91920 74
92040 74
92040 72
92160 72
92160 66
92160 62
92160 62
92160 67
92160 71
92880 71
92880 72
93000 72
93000 74
93120 74
93120 67
93120 62
93120 67
93120 72
93120 75
93360 75
93360 77
93480 77
93480 75
93600 75
93600 72
93600 67
93600 67
93600 74
93840 74
93840 71
93960 71
93960 72
94080 72
94080 67
94080 71
94080 67
94080 74
94320 74
94320 71
94320 71
94440 71
94440 72
94560 72
94560 67
94560 62
94560 66
94560 71
94800 71
94800 69
94920 69
94920 71
95040 71
95040 66
95040 62
95040 62
95040 67
95280 67
95280 62
95280 62
95280 67
95280 71
95400 67
95400 62
95400 66
95520 66
95520 71
95520 65
95520 71
95760 71
95760 65
95760 64
95760 71
95880 64
95880 63
96000 63
96000 71
96000 62
96000 66
96000 72
96240 72
96240 66
96240 62
96240 66
96240 72
96360 66
96360 62
96480 62
96480 72
96480 62
96480 67
96480 71
96720 71
96720 67
96720 62
96720 62
96720 67
96720 71
96840 67
96840 62
96840 66
96960 66
96960 71
96960 65
96960 71
97200 71
97200 65
97200 64
97200 71
97320 64
97320 63
97440 63
97440 71
97440 62
97440 66
97440 72
97680 72
97680 66
97680 62
97680 66
97680 72
97800 66
97800 62
97920 62
97920 72
97920 62
97920 67
97920 71
98160 71
98160 67
98160 62
98160 62
98160 67
98160 71
98280 67
98280 62
98280 66
98400 66
98400 71
98400 62
98400 67
98400 71
98640 71
98640 67
98640 62
98640 71
98640 67
98640 74
98760 67
98760 71
98760 70
98880 70
98880 74
98880 67
98880 71
98880 74
99120 74
99120 71
99120 67
99120 71
99120 74
99120 79
99240 74
99240 71
99240 73
99360 73
99360 79
99360 74
99360 79
99360 83
99600 83
99600 79
99600 74
99600 74
99600 79
99600 83
99720 79
99720 74
99720 78
99840 78
99840 83
99840 74
99840 79
99840 83
100080 83
100080 79
100080 74
100080 83
100080 79
100080 86
100200 79
100200 83
100200 82
100320 82
100320 86
100320 79
100320 83
100320 86
100560 86
100560 83
100560 79
100560 83
100560 86
100560 91
100680 86
100680 83
100680 85
100800 85
100800 91
100800 83
100800 86
100800 91
101040 91
101040 86
101040 83
101040 83
101040 86
101040 91
101160 86
101160 83
101160 82
101280 82
101280 91
101280 83
101280 86
101280 91
101520 91
101520 86
101520 83
101520 83
101520 86
101520 91
101640 86
101640 83
101640 82
101760 82
101760 91
101760 83
101760 86
101760 91
102000 91
102000 86
102000 83
102000 83
102000 86
102000 91
102120 86
102120 83
102120 82
102240 82
102240 91
102240 83
102240 86
102240 91
102480 91
102480 86
102480 83
102480 83
102480 86
102480 91
102600 86
102600 83
102600 82
102720 82
102720 91
102720 83
102720 86
102720 91
102960 91
102960 86
102960 83
102960 83
102960 86
102960 91
103080 86
103080 83
103080 82
103200 82
103200 91
103200 83
103200 86
103200 91
103440 91
103440 86
103440 83
103440 83
103440 86
103440 91
103560 86
103560 83
103560 82
103680 82
103680 91
103680 83
103680 86
103680 91
104160 91
104160 86
104160 83
108240 84
108480 84
108480 86
108720 86
108720 87
108960 87
108960 89
109200 89
109200 92
109440 92
109440 96
110040 96
110040 94
110160 94
110160 92
110280 92
110280 91
110400 91
110400 89
110520 89
110520 91
110640 91
110640 92
110760 92
110760 89
110880 89
110880 91
111000 91
111000 92
111120 92
111120 91
111240 91
111240 89
111360 89
111360 87
111480 87
111480 89
111600 89
111600 87
111720 87
111720 86
111840 86
111840 84
111960 84
111960 86
112080 86
112080 87
112200 87
112200 91
112320 91
112320 91
113040 91
113040 89
113160 89
113160 87
113280 87
113280 86
113400 86
113400 87
113520 87
113520 89
113640 89
113640 92
113760 92
113760 91
113840 91
113840 92
113920 92
113920 91
114000 91
114000 89
114120 89
114120 87
114240 87
114240 86
114360 86
114360 87
114480 87
114480 89
114600 89
114600 91
114720 91
114720 83
114720 89
114800 89
114800 83
114800 91
114880 91
114880 89
114960 89
114960 87
115080 87
115080 86
115200 86
115200 96
115200 91
115200 87
115200 84
115440 84
115440 96
115440 91
115440 87
115680 60
115680 65
115680 68
115680 72
116640 72
116640 60
116640 65
116640 68
116640 63
116640 67
116640 72
116760 67
116760 63
116760 62
116880 62
116880 72
116880 60
116880 63
116880 67
117000 63
117000 60
117000 55
117120 55
117120 67
117120 63
117120 67
117120 72
117240 67
117240 63
117240 62
117360 62
117360 72
117360 60
117360 63
117360 67
117480 63
117480 60
117480 55
117600 55
117600 67
117600 65
117600 67
117600 71
117720 67
117720 65
117720 63
117840 63
117840 71
117840 62
117840 65
117840 67
117960 65
117960 62
117960 55
118080 55
118080 67
118080 60
118080 63
118080 67
118080 72
118320 72
118320 60
118320 63
118320 67
118320 84
118560 84
118560 86
118800 86
118800 87
119040 87
119040 89
119280 89
119280 92
119520 92
119520 99
120120 99
120120 98
120240 98
120240 96
120360 96
120360 94
120480 94
120480 96
120560 96
120560 98
120640 98
120640 96
120720 96
120720 94
120840 94
120840 92
120960 92
120960 94
121080 94
121080 96
121200 96
121200 94
121320 94
121320 92
121440 92
121440 91
121680 91
121680 89
121800 89
121800 91
121920 91
121920 92
122040 92
122040 94
122160 94
122160 96
122280 96
122280 92
122400 92
122400 91
122480 91
122480 92
122560 92
122560 91
122640 91
122640 89
122760 89
122760 91
122880 91
122880 87
123120 87
123120 86
123240 86
123240 87
123360 87
123360 89
123440 89
123440 91
123520 91
123520 89
123600 89
123600 87
123720 87
123720 89
123840 89
123840 86
123920 86
123920 87
124000 87
124000 86
124080 86
124080 84
124200 84
124200 87
124320 87
124320 86
124560 86
124560 84
124680 84
124680 86
124800 86
124800 87
124920 87
124920 89
125040 89
125040 91
125160 91
125160 92
125280 92
125280 89
125360 89
125360 91
125440 91
125440 89
125520 89
125520 87
125600 87
125600 89
125680 89
125680 87
125760 87
125760 86
125840 86
125840 87
125920 87
125920 86
126000 86
126000 84
126080 84
126080 86
126160 86
126160 84
126240 84
126240 82
126320 82
126320 84
126400 84
126400 82
126480 82
126480 80
126560 80
126560 82
126640 82
126640 80
126720 80
126720 79
127200 79
127200 62
127200 60
127200 66
127200 69
127200 74
128160 74
128160 66
128160 62
128160 60
128160 69
128160 62
128160 67
128160 71
128280 71
128280 67
128280 62
128280 60
128400 60
128400 59
128400 62
128400 67
128520 67
128520 62
128520 59
128520 55
128640 55
128640 62
128640 67
128640 71
128760 71
128760 67
128760 62
128760 60
128880 60
128880 59
128880 62
128880 67
129000 67
129000 62
129000 59
129000 55
129120 55
129120 64
129120 66
129120 72
129240 72
129240 66
129240 64
129240 62
129360 62
129360 60
129360 62
129360 66
129480 66
129480 62
129480 60
129480 57
129600 57
129600 55
129600 67
129840 67
129840 55
129840 79
130080 79
130080 79
130320 79
130320 79
130560 79
130560 79
130920 79
130920 79
131040 79
131040 79
131520 79
131520 77
131880 77
131880 74
132000 74
132000 75
132120 75
132120 77
132240 77
132240 79
132360 79
132360 80
132480 80
132480 79
132720 79
132720 80
132840 80
132840 79
132960 79
132960 77
133200 77
133200 74
133320 74
133320 77
133440 77
133440 75
133520 75
133520 77
133600 77
133600 75
133680 75
133680 74
133800 74
133800 72
133920 72
133920 71
134280 71
134280 74
134400 74
134400 74
135360 74
135600 79
135840 79
135840 79
136080 79
136080 79
136320 79
136320 79
136680 79
136680 79
136800 79
136800 79
137280 79
137280 77
137520 77
137520 74
137640 74
137640 75
137760 75
137760 77
137820 77
137820 79
137880 79
137880 80
137940 80
137940 82
138000 82
138000 84
138080 84
138080 82
138160 82
138160 80
138240 80
138240 79
138480 79
138480 80
138600 80
138600 79
138720 79
138720 77
138960 77
138960 74
139080 74
139080 75
139200 75
139200 77
139280 77
139280 79
139360 79
139360 77
139440 77
139440 75
139520 75
139520 74
139600 74
139600 72
139680 72
139680 71
139920 71
139920 65
139980 65
140040 65
140100 65
140160 68
140280 68
140400 62
140460 62
140520 62
140580 62
140640 65
140760 65
140880 59
140940 59
141000 59
141060 59
141120 62
141240 62
141360 56
141420 56
141480 56
141540 56
141600 60
141720 60
141840 53
141900 53
141960 53
142020 53
142080 56
142200 56
142320 50
142380 50
142440 50
142500 50
142560 55
142680 55
142800 65
142860 65
142920 65
142980 65
143040 68
143100 68
143160 68
143220 68
143280 62
143340 62
143400 62
143460 62
143520 65
143580 65
143640 65
143700 65
143760 59
143820 59
143880 59
143940 59
144000 62
144060 62
144120 62
144180 62
144240 56
144300 56
144360 56
144420 56
144480 60
144540 60
144600 60
144660 60
144720 53
144780 53
144840 53
144900 53
144960 56
145020 56
145080 56
145140 56
145200 50
145260 50
145320 50
145380 50
145440 55
145680 55
148560 84
148800 84
148800 86
149040 86
149040 87
149280 87
149280 89
149520 89
149520 92
149760 92
149760 96
150360 96
150360 94
150480 94
150480 92
150600 92
150600 91
150720 91
150720 89
150840 89
150840 91
150960 91
150960 92
151080 92
151080 89
151200 89
151200 91
151320 91
151320 92
151440 92
151440 91
151560 91
151560 89
151680 89
151680 87
151800 87
151800 89
151920 89
151920 87
152040 87
152040 86
152160 86
152160 84
152280 84
152280 86
152400 86
152400 87
152520 87
152520 91
152640 91
152640 91
153360 91
153360 89
153480 89
153480 87
153600 87
153600 86
153720 86
153720 87
153840 87
153840 89
153960 89
153960 92
154080 92
154080 91
154160 91
154160 92
154240 92
154240 91
154320 91
154320 89
154440 89
154440 87
154560 87
154560 86
154680 86
154680 87
154800 87
154800 89
154920 89
154920 91
155040 91
155040 83
155040 89
155120 89
155120 83
155120 91
155200 91
155200 89
155280 89
155280 87
155400 87
155400 86
155520 86
155520 96
155520 91
155520 87
155520 84
155760 84
155760 96
155760 91
155760 87
156000 60
156000 65
156000 68
156000 72
156960 72
156960 60
156960 65
156960 68
156960 63
156960 67
156960 72
157080 67
157080 63
157080 62
157200 62
157200 72
157200 60
157200 63
157200 67
157320 63
157320 60
157320 55
157440 55
157440 67
157440 63
157440 67
157440 72
157560 67
157560 63
157560 62
157680 62
157680 72
157680 60
157680 63
157680 67
157800 63
157800 60
157800 55
157920 55
157920 67
157920 65
157920 67
157920 71
158040 67
158040 65
158040 63
158160 63
158160 71
158160 62
158160 65
158160 67
158280 65
158280 62
158280 55
158400 55
158400 67
158400 63
158400 67
158400 72
158640 72
158640 67
158640 63
158640 63
158640 67
158640 72
158760 67
158760 63
158760 62
158880 62
158880 72
158880 63
158880 67
158880 72
159120 72
159120 67
159120 63
159120 63
159120 60
159120 67
159240 60
159240 59
159360 59
159360 67
159360 63
159360 60
159360 63
159360 67
159600 67
159600 63
159600 60
159600 55
159840 55
159840 67
159840 70
159840 75
160080 75
160080 70
160080 67
160080 67
160080 70
160080 75
160200 70
160200 67
160200 66
160320 66
160320 75
160320 67
160320 70
160320 75
160560 75
160560 70
160560 67
160560 67
160560 63
160560 70
160680 63
160680 62
160800 62
160800 70
160800 67
160800 63
160800 67
160800 70
161040 70
161040 67
161040 63
161040 58
161040 63
161040 67
161280 67
161280 63
161280 58
161280 67
161280 62
161280 71
161280 74
161520 74
161520 67
161520 62
161520 71
161520 67
161520 71
161520 74
161640 71
161640 67
161640 66
161760 66
161760 74
161760 67
161760 71
161760 74
162000 74
162000 71
162000 67
162000 74
162000 71
162000 79
162120 71
162120 74
162120 70
162240 70
162240 79
162240 71
162240 74
162240 79
162480 79
162480 74
162480 71
162480 83
162480 74
162480 79
162600 74
162600 73
162720 73
162720 79
162720 83
162720 74
162720 79
162720 83
162960 83
162960 79
162960 74
162960 79
162960 74
162960 83
162960 86
163080 83
163080 79
163080 74
163080 82
163200 82
163200 86
163200 74
163200 79
163200 83
163200 86
163440 86
163440 74
163440 79
163440 83
163440 74
163440 86
163560 86
163560 74
163560 74
163560 86
163680 86
163680 74
163680 74
163680 84
163680 78
163680 86
163920 86
163920 74
163920 84
163920 78
163920 74
163920 86
163920 78
163920 84
164160 84
164160 74
164160 86
164160 78
164160 62
164160 67
164160 71
164400 71
164400 67
164400 62
164400 62
164400 67
164400 71
164520 67
164520 62
164520 66
164640 66
164640 71
164640 65
164640 71
164880 71
164880 65
164880 64
164880 71
165000 64
165000 63
165120 63
165120 71
165120 62
165120 66
165120 72
165360 72
165360 66
165360 62
165360 66
165360 72
165480 66
165480 62
165600 62
165600 72
165600 62
165600 67
165600 71
165840 71
165840 67
165840 62
165840 62
165840 67
165840 71
165960 67
165960 62
165960 66
166080 66
166080 71
166080 65
166080 71
166320 71
166320 65
166320 64
166320 71
166440 64
166440 63
166560 63
166560 71
166560 62
166560 66
166560 72
166800 72
166800 66
166800 62
166800 66
166800 72
166920 66
166920 62
167040 62
167040 72
167040 67
167040 71
167040 74
167040 79
168000 79
168000 67
168000 71
168000 74
168000 66
168000 72
168000 78
168360 78
168360 72
168360 66
168360 74
168480 74
168480 76
168480 67
168480 71
168720 76
168720 76
168800 76
168800 78
168880 78
168880 76
168960 76
168960 74
169440 74
169440 71
169440 67
169440 60
169440 72
169440 62
169440 66
169440 69
169800 69
169800 62
169800 60
169800 72
169800 66
169800 69
169920 69
169920 71
169920 62
169920 67
170040 71
170040 72
170160 72
170160 74
170400 74
170400 74
170640 67
170640 62
170640 59
170760 59
170760 62
170880 62
170880 74
170880 60
171000 60
171000 62
171120 62
171120 60
171240 60
171240 62
171360 62
171360 59
171600 59
171600 59
171600 62
171720 62
171720 64
171840 64
171840 62
171960 62
171960 64
172080 64
172080 67
172200 67
172200 64
172320 64
172320 59
172320 60
172320 66
172560 66
172560 64
172680 64
172680 62
172800 62
172800 60
172800 67
172800 71
172800 74
172800 79
173760 79
173760 67
173760 71
173760 74
173760 66
173760 72
173760 78
174120 78
174120 72
174120 66
174120 74
174240 74
174240 76
174240 67
174240 71
174480 76
174480 76
174560 76
174560 78
174640 78
174640 76
174720 76
174720 74
175200 74
175200 71
175200 67
175200 60
175200 72
175200 62
175200 66
175200 69
175560 69
175560 62
175560 60
175560 72
175560 66
175560 69
175680 69
175680 71
175680 62
175680 67
175800 71
175800 72
175920 72
175920 74
176160 74
176160 74
176400 67
176400 62
176400 59
176520 59
176520 62
176640 62
176640 74
176640 60
176760 60
176760 62
176880 62
176880 60
177000 60
177000 62
177120 62
177120 59
177360 59
177360 59
177360 62
177480 62
177480 64
177600 64
177600 62
177720 62
177720 64
177840 64
177840 67
177960 67
177960 64
178080 64
178080 59
178080 60
178080 66
178320 66
178320 64
178440 64
178440 62
178560 62
178560 60
178560 67
178560 74
178560 79
179520 79
179520 74
179520 67
179520 65
179520 69
179520 77
179880 77
179880 69
179880 65
179880 72
180000 72
180000 74
180000 65
180000 70
180240 74
180240 74
180360 74
180360 75
180480 75
180480 77
180960 77
180960 70
180960 65
180960 75
180960 65
180960 69
181320 69
181320 65
181320 75
181320 72
181440 72
181440 74
181440 70
181440 65
181560 74
181560 75
181680 75
181680 74
181800 74
181800 75
181920 75
181920 77
182040 77
182040 79
182160 79
182160 81
182280 81
182280 79
182400 79
182400 65
182400 70
182400 69
182400 77
182520 77
182520 75
182640 75
182640 74
182760 74
182760 72
182880 72
182880 69
182880 74
182880 70
182880 65
183000 74
183000 75
183120 75
183120 74
183240 74
183240 75
183360 75
183360 77
183480 77
183480 79
183600 79
183600 81
183720 81
183720 79
183840 79
183840 65
183840 70
183840 69
183840 77
183960 77
183960 75
184080 75
184080 74
184200 74
184200 72
184320 72
184320 69
184320 65
184320 70
184320 74
185280 74
185280 70
185280 65
185280 72
185280 62
185280 66
185280 74
185520 74
185520 72
185520 74
185640 74
185640 72
185760 72
185760 66
185760 62
185760 62
185760 67
185760 71
186480 71
186480 72
186600 72
186600 74
186720 74
186720 67
186720 62
186720 67
186720 72
186720 75
186960 75
186960 77
187080 77
187080 75
187200 75
187200 72
187200 67
187200 67
187200 74
187440 74
187440 71
187560 71
187560 72
187680 72
187680 67
187680 71
187680 67
187680 74
187920 74
187920 71
187920 71
188040 71
188040 72
188160 72
188160 67
188160 62
188160 66
188160 71
188400 71
188400 69
188520 69
188520 71
188640 71
188640 66
188640 62
188640 62
188640 67
188880 67
188880 62
188880 62
188880 67
188880 71
189000 67
189000 62
189000 66
189120 66
189120 71
189120 65
189120 71
189360 71
189360 65
189360 64
189360 71
189480 64
189480 63
189600 63
189600 71
189600 62
189600 66
189600 72
189840 72
189840 66
189840 62
189840 66
189840 72
189960 66
189960 62
190080 62
190080 72
190080 62
190080 67
190080 71
190320 71
190320 67
190320 62
190320 62
190320 67
190320 71
190440 67
190440 62
190440 66
190560 66
190560 71
190560 65
190560 71
190800 71
190800 65
190800 64
190800 71
190920 64
190920 63
191040 63
191040 71
191040 62
191040 66
191040 72
191280 72
191280 66
191280 62
191280 66
191280 72
191400 66
191400 62
191520 62
191520 72
191520 62
191520 67
191520 71
191760 71
191760 67
191760 62
191760 62
191760 67
191760 71
191880 67
191880 62
191880 66
192000 66
192000 71
192000 62
192000 67
192000 71
192240 71
192240 67
192240 62
192240 71
192240 67
192240 74
192360 67
192360 71
192360 70
192480 70
192480 74
192480 67
192480 71
192480 74
192720 74
192720 71
192720 67
192720 71
192720 74
192720 79
192840 74
192840 71
192840 73
192960 73
192960 79
192960 74
192960 79
192960 83
193200 83
193200 79
193200 74
193200 74
193200 79
193200 83
193320 79
193320 74
193320 78
193440 78
193440 83
193440 74
193440 79
193440 83
193680 83
193680 79
193680 74
193680 83
193680 79
193680 86
193800 79
193800 83
193800 82
193920 82
193920 86
193920 79
193920 83
193920 86
194160 86
194160 83
194160 79
194160 83
194160 86
194160 91
194280 86
194280 83
194280 85
194400 85
194400 91
194400 83
194400 86
194400 91
194640 91
194640 86
194640 83
194640 83
194640 86
194640 91
194760 86
194760 83
194760 82
194880 82
194880 91
194880 83
194880 86
194880 91
195120 91
195120 86
195120 83
195120 83
195120 86
195120 91
195240 86
195240 83
195240 82
195360 82
195360 91
195360 83
195360 86
195360 91
195600 91
195600 86
195600 83
195600 83
195600 86
195600 91
195720 86
195720 83
195720 82
195840 82
195840 91
195840 83
195840 86
195840 91
196080 91
196080 86
196080 83
196080 83
196080 86
196080 91
196200 86
196200 83
196200 82
196320 82
196320 91
196320 83
196320 86
196320 91
196560 91
196560 86
196560 83
196560 83
196560 86
196560 91
196680 86
196680 83
196680 82
196800 82
196800 91
196800 83
196800 86
196800 91
197040 91
197040 86
197040 83
197040 83
197040 86
197040 91
197160 86
197160 83
197160 82
197280 82
197280 91
197280 83
197280 86
197280 91
199680 91
199680 86
199680 83
199680 83
199680 86
199680 91
199680 95
200160 95
200160 83
200160 86
200160 91
200160 55
201600 55
