120 62
180 62
360 62
420 62
600 62
660 62
840 62
900 62
1080 62
1140 62
1320 62
1380 62
1560 62
1620 62
1800 62
1860 62
2040 62
2100 62
2280 62
2340 62
2520 62
2580 62
2760 62
2820 62
3000 62
3060 62
3240 62
3300 62
3480 62
3540 62
3720 62
3780 62
3960 62
4020 62
4200 62
4260 62
4440 62
4500 62
4680 62
4740 62
4920 62
4980 62
5160 62
5220 62
5400 62
5460 62
5640 62
5700 62
5880 62
5940 62
6120 62
6180 62
6360 62
6420 62
6600 62
6660 62
6840 62
6900 62
7080 62
7140 62
7320 62
7380 62
7560 62
7620 62
7800 62
7860 62
8040 62
8100 62
8280 62
8340 62
8520 62
8580 62
8760 62
8820 62
9000 62
9060 62
9240 62
9300 62
9480 62
9540 62
9720 62
9780 62
9960 62
10020 62
10200 62
10260 62
10440 62
10500 62
10680 62
10740 62
10920 62
10980 62
11160 62
11220 62
11400 62
11460 62
11640 62
11700 62
11880 62
11940 62
12120 62
12180 62
12360 62
12420 62
12600 62
12660 62
12840 62
12900 62
13080 62
13140 62
13320 62
13380 62
13560 62
13620 62
13800 62
13860 62
14040 62
14100 62
14280 62
14340 62
14520 62
14580 62
14760 62
14820 62
15000 62
15060 62
15240 62
15300 62
15480 62
15540 62
15720 62
15780 62
15960 62
16020 62
16200 62
16260 62
16440 62
16500 62
16680 62
16740 62
16920 62
16980 62
17160 62
17220 62
17400 62
17460 62
17640 62
17700 62
17880 62
17940 62
18120 62
18180 62
18360 62
18420 62
18600 62
18660 62
18840 62
18900 62
19080 62
19140 62
19320 62
19380 62
19560 62
19620 62
19800 62
19860 62
20040 62
20100 62
20280 62
20340 62
20520 62
20580 62
20760 62
20820 62
21000 62
21060 62
21240 62
21300 62
21480 62
21540 62
21720 62
21780 62
21960 62
22020 62
22200 62
22260 62
22440 62
22500 62
22680 62
22740 62
22920 62
22980 62
23160 74
23160 62
23220 62
23220 74
23400 74
23400 62
23460 62
23460 74
23640 74
23640 62
23700 62
23700 74
23880 74
23880 62
23940 62
23940 74
24120 74
24120 62
24180 62
24180 74
24360 74
24360 62
24420 62
24420 74
24600 62
24600 74
24660 74
24660 62
24840 74
24840 62
24900 62
24900 74
25080 74
25080 62
25140 62
25140 74
25320 74
25320 62
25380 62
25380 74
25560 62
25560 74
25620 74
25620 62
25800 74
25800 62
25860 62
25860 74
26040 74
26040 62
26100 62
26100 74
26280 74
26280 62
26340 62
26340 74
26520 74
26520 62
26580 62
26580 74
26760 74
26760 62
26820 62
26820 74
27000 62
27000 74
27060 74
27060 62
27240 74
27240 62
27300 62
27300 74
27480 74
27480 62
27540 62
27540 74
27720 74
27720 62
27780 62
27780 74
27960 62
27960 74
28020 74
28020 62
28200 62
28200 74
28260 74
28260 62
28440 74
28440 62
28500 62
28500 74
28680 74
28680 62
28740 62
28740 74
28920 74
28920 62
28980 62
28980 74
29160 62
29160 74
29220 74
29220 62
29400 74
29400 62
29460 62
29460 74
29640 74
29640 62
29700 62
29700 74
29880 74
29880 62
29940 62
29940 74
30120 74
30120 62
30180 62
30180 74
30360 74
30360 62
30420 62
30420 74
30600 74
30600 62
30660 62
30660 74
30840 74
30840 62
30900 62
30900 74
31080 74
31080 62
31140 62
31140 74
31320 74
31320 62
31380 62
31380 74
31560 74
31560 62
31620 62
31620 74
31800 62
31800 74
31860 74
31860 62
32040 74
32040 62
32100 62
32100 74
32280 74
32280 62
32340 62
32340 74
32520 74
32520 62
32580 62
32580 74
32760 62
32760 74
32820 74
32820 62
33000 62
33000 74
33060 74
33060 62
33240 74
33240 62
33300 62
33300 74
33480 74
33480 62
33540 62
33540 74
33720 74
33720 62
33780 62
33780 74
33960 62
33960 74
34020 74
34020 62
34200 74
34200 62
34260 62
34260 74
34440 74
34440 62
34500 62
34500 74
34680 78
34680 81
34680 86
34680 74
34740 74
34740 78
34740 81
34740 86
34920 74
34920 62
34980 62
34980 74
35160 62
35160 74
35220 74
35220 62
35400 74
35400 62
35460 62
35460 74
35640 74
35640 62
35700 62
35700 74
35880 74
35880 62
35940 62
35940 74
36120 78
36120 74
36120 81
36120 86
36180 86
36180 78
36180 74
36180 81
36360 74
36360 62
36420 62
36420 74
36600 74
36600 62
36660 62
36660 74
36840 74
36840 62
36900 62
36900 74
37080 74
37080 62
37140 62
37140 74
37320 74
37320 62
37380 62
37380 74
37560 86
37560 74
37560 78
37560 81
37620 81
37620 86
37620 74
37620 78
37800 74
37800 62
37860 62
37860 74
38040 62
38040 74
38100 74
38100 62
38280 74
38280 62
38340 62
38340 74
38520 74
38520 62
38580 62
38580 74
38760 74
38760 62
38820 62
38820 74
39000 62
39000 74
39060 74
39060 62
39240 74
39240 62
39300 62
39300 74
39480 74
39480 62
39540 62
39540 74
39720 74
39720 62
39780 62
39780 74
39960 74
39960 62
40020 62
40020 74
40200 74
40200 62
40260 62
40260 74
40440 81
40440 74
40440 78
40440 86
40500 86
40500 81
40500 74
40500 78
40680 74
40680 62
40740 62
40740 74
40920 74
40920 62
40980 62
40980 74
41160 62
41160 74
41220 74
41220 62
41400 62
41400 74
41460 74
41460 62
41640 74
41640 62
41700 62
41700 74
41880 78
41880 74
41880 86
41880 81
41940 81
41940 78
41940 74
41940 86
42120 62
42120 74
42180 74
42180 62
42360 74
42360 62
42420 62
42420 74
42600 74
42600 62
42660 62
42660 74
42840 74
42840 62
42900 62
42900 74
43080 74
43080 62
43140 62
43140 74
43320 78
43320 74
43320 81
43320 86
43380 86
43380 78
43380 74
43380 81
43560 74
43560 62
43620 62
43620 74
43800 74
43800 62
43860 62
43860 74
44040 74
44040 62
44100 62
44100 74
44280 62
44280 74
44340 74
44340 62
44520 74
44520 62
44580 62
44580 74
44760 74
44760 62
44820 62
44820 74
45000 74
45000 62
45060 62
45060 74
45240 74
45240 62
45300 62
45300 74
45480 74
45480 62
45540 62
45540 74
45720 74
45720 62
45780 62
45780 74
45960 74
45960 62
46020 62
46020 74
46200 82
46200 86
46200 91
46200 79
46260 79
46260 82
46260 86
46260 91
46440 62
46440 74
46500 74
46500 62
46680 74
46680 62
46740 62
46740 74
46920 74
46920 62
46980 62
46980 74
47160 74
47160 62
47220 62
47220 74
47400 62
47400 74
47460 74
47460 62
47640 82
47640 79
47640 86
47640 91
47700 91
47700 82
47700 79
47700 86
47880 74
47880 62
47940 62
47940 74
48120 74
48120 62
48180 62
48180 74
48360 74
48360 62
48420 62
48420 74
48600 62
48600 74
48660 74
48660 62
48840 74
48840 62
48900 62
48900 74
49080 91
49080 79
49080 82
49080 86
49140 86
49140 91
49140 79
49140 82
49320 74
49320 62
49380 62
49380 74
49560 74
49560 62
49620 62
49620 74
49800 74
49800 62
49860 62
49860 74
50040 74
50040 62
50100 62
50100 74
50280 74
50280 62
50340 62
50340 74
50520 74
50520 62
50580 62
50580 74
50760 62
50760 74
50820 74
50820 62
51000 74
51000 62
51060 62
51060 74
51240 74
51240 62
51300 62
51300 74
51480 74
51480 62
51540 62
51540 74
51720 62
51720 74
51780 74
51780 62
51960 82
51960 79
51960 91
51960 87
52020 87
52020 82
52020 79
52020 91
52200 75
52200 63
52260 63
52260 75
52440 75
52440 63
52500 63
52500 75
52680 75
52680 63
52740 63
52740 75
52920 63
52920 75
52980 75
52980 63
53160 75
53160 63
53220 63
53220 75
53400 82
53400 79
53400 91
53400 87
53460 87
53460 82
53460 79
53460 91
53640 63
53640 75
53700 75
53700 63
53880 63
53880 75
53940 75
53940 63
54120 75
54120 63
54180 63
54180 75
54360 75
54360 63
54420 63
54420 75
54600 75
54600 63
54660 63
54660 75
54840 82
54840 79
54840 87
54840 91
54900 91
54900 82
54900 79
54900 87
55080 75
55080 63
55140 63
55140 75
55320 75
55320 63
55380 63
55380 75
55560 75
55560 63
55620 63
55620 75
55800 75
55800 63
55860 63
55860 75
56040 63
56040 75
56100 75
56100 63
56280 75
56280 63
56340 63
56340 75
56520 75
56520 63
56580 63
56580 75
56760 75
56760 63
56820 63
56820 75
57000 63
57000 75
57060 75
57060 63
57240 75
57240 63
57300 63
57300 75
57480 75
57480 63
57540 63
57540 75
57720 90
57720 93
57720 98
57720 86
57780 86
57780 90
57780 93
57780 98
57960 74
57960 62
58020 62
58020 74
58200 74
58200 62
58260 62
58260 74
58440 74
58440 62
58500 62
58500 74
58680 74
58680 62
58740 62
58740 74
58920 74
58920 62
58980 62
58980 74
59160 94
59160 87
59160 91
59160 99
59220 99
59220 94
59220 87
59220 91
59400 75
59400 63
59460 63
59460 75
59640 75
59640 63
59700 63
59700 75
59880 63
59880 75
59940 75
59940 63
60120 75
60120 63
60180 63
60180 75
60360 75
60360 63
60420 63
60420 75
60600 98
60600 86
60600 90
60600 93
60660 93
60660 98
60660 86
60660 90
60840 74
60840 62
60900 62
60900 74
61080 62
61080 74
61140 74
61140 62
61320 74
61320 62
61380 62
61380 74
61560 74
61560 62
61620 62
61620 74
61800 74
61800 62
61860 62
61860 74
62040 91
62040 87
62040 99
62040 94
62100 94
62100 91
62100 87
62100 99
62280 75
62280 63
62340 63
62340 75
62520 75
62520 63
62580 63
62580 75
62760 75
62760 63
62820 63
62820 75
63000 63
63000 75
63060 75
63060 63
63240 75
63240 63
63300 63
63300 75
63480 98
63480 86
63480 90
63480 93
63540 93
63540 98
63540 86
63540 90
63720 74
63720 62
63780 62
63780 74
63960 74
63960 62
64020 62
64020 74
64200 74
64200 62
64260 62
64260 74
64440 74
64440 62
64500 62
64500 74
64680 74
64680 62
64740 62
64740 74
64920 74
64920 62
64980 62
64980 74
65160 74
65160 62
65220 62
65220 74
65400 62
65400 74
65460 74
65460 62
65640 74
65640 62
65700 62
65700 74
65880 74
65880 62
65940 62
65940 74
66120 74
66120 62
66180 62
66180 74
66360 62
66360 74
66420 74
66420 62
66600 62
66600 74
66660 74
66660 62
66840 74
66840 62
66900 62
66900 74
67080 74
67080 62
67140 62
67140 74
67320 74
67320 62
67380 62
67380 74
67560 62
67560 74
67620 74
67620 62
67800 62
67800 74
67860 74
67860 62
68040 74
68040 62
68100 62
68100 74
68280 74
68280 62
68340 62
68340 74
68520 74
68520 62
68580 62
68580 74
68760 74
68760 62
68820 62
68820 74
69000 62
69000 74
69060 74
69060 62
69240 74
69240 62
69300 62
69300 74
69480 62
69540 62
69720 62
69780 62
69960 62
70020 62
70200 62
70260 62
70440 62
70500 62
70680 62
70740 62
70920 62
70980 62
71160 62
71220 62
71400 62
71460 62
71640 62
71700 62
71880 62
71940 62
72120 62
72180 62
72360 62
72420 62
72600 62
72660 62
72840 62
72900 62
73080 62
73140 62
73320 62
73380 62
73560 62
73620 62
73800 62
73860 62
74040 62
74100 62
74280 62
74340 62
74520 62
74580 62
74760 62
74820 62
75000 57
75000 54
75060 54
75060 57
75240 54
75240 57
75300 57
75300 54
75480 54
75480 57
75540 57
75540 54
75720 54
75720 57
75780 57
75780 54
75960 54
75960 57
76020 57
76020 54
76200 54
76200 57
76260 57
76260 54
76440 58
76440 55
76500 55
76500 58
76680 55
76680 58
76740 58
76740 55
76920 55
76920 58
76980 58
76980 55
77160 55
77160 58
77220 58
77220 55
77400 58
77400 55
77460 55
77460 58
77640 55
77640 58
77700 58
77700 55
77880 54
77880 57
77940 57
77940 54
78120 54
78120 57
78180 57
78180 54
78360 54
78360 57
78420 57
78420 54
78600 54
78600 57
78660 57
78660 54
78840 54
78840 57
78900 57
78900 54
79080 54
79080 57
79140 57
79140 54
79320 55
79320 58
79380 58
79380 55
79560 55
79560 58
79620 58
79620 55
79800 58
79800 55
79860 55
79860 58
80040 55
80040 58
80100 58
80100 55
80280 55
80280 58
80340 58
80340 55
80520 55
80520 58
80580 58
80580 55
80760 57
80760 54
80820 54
80820 57
81000 54
81000 57
81060 57
81060 54
81240 54
81240 57
81300 57
81300 54
81480 54
81480 57
81540 57
81540 54
81720 54
81720 57
81780 57
81780 54
81960 54
81960 57
82020 57
82020 54
82200 57
82200 54
82260 54
82260 57
82440 54
82440 57
82500 57
82500 54
82680 54
82680 57
82740 57
82740 54
82920 54
82920 57
82980 57
82980 54
83160 57
83160 54
83220 54
83220 57
83400 57
83400 54
83460 54
83460 57
83640 54
83700 54
83880 57
83940 57
84120 62
84180 62
84360 66
84420 66
84600 69
84660 69
84840 74
84900 74
85080 78
85140 78
85320 81
85380 81
85560 86
85620 86
85800 90
85860 90
86040 93
86100 93
86280 98
86340 98
86400 98
86400 90
86400 86
88320 86
88320 90
88320 98
89280 86
90240 86
90240 84
90480 84
90480 86
90720 86
90720 89
91560 86
91620 86
91620 89
91620 87
91680 87
91680 86
91920 86
91920 84
92160 84
92160 86
93120 86
93120 57
93120 62
93120 66
93600 66
93600 66
93600 69
95040 69
95040 57
95040 62
95040 66
95040 86
96000 86
96000 84
96240 84
96240 86
96480 86
96480 89
97320 86
97380 86
97380 89
97380 87
97440 87
97440 86
97680 86
97680 84
97920 84
97920 86
98880 86
98880 53
98880 58
98880 62
99360 62
99360 62
99360 65
100800 65
100800 53
100800 58
100800 62
100800 86
101760 86
101760 85
102600 85
102600 82
102660 82
102660 84
102720 84
102720 82
102960 82
102960 81
103200 81
103200 79
103440 79
103440 82
103680 82
103680 81
104640 81
104640 57
104640 62
104640 66
105120 66
105120 66
105120 69
106560 69
106560 57
106560 62
106560 66
106560 86
107520 86
107520 87
107760 87
107760 86
108000 86
108000 85
108240 85
108240 81
108360 81
108360 82
108420 82
108420 84
108480 84
108480 82
108720 82
108720 81
108960 81
108960 79
109200 79
109200 82
109440 82
109440 81
110400 81
110400 57
110400 61
110400 67
110880 67
110880 61
110880 62
110880 66
112320 66
112320 62
112320 57
112800 65
113760 65
114120 66
114180 66
114180 68
114240 68
114240 66
114480 66
114480 65
114720 65
114720 66
114960 66
114960 75
115200 75
115680 74
115680 65
116640 65
116640 74
117120 73
117120 74
117600 73
117600 72
118080 72
118080 74
118560 70
118560 62
119040 70
119040 74
119520 74
119520 62
120000 69
120000 62
120480 69
120480 74
120960 74
120960 62
121440 67
121440 62
121920 67
121920 74
122400 74
122400 62
122880 61
122880 67
123840 67
123840 61
124800 62
124800 66
125280 66
125280 62
125760 69
125760 67
126000 67
126000 69
126240 69
126240 67
126480 67
126480 69
127680 62
127680 66
128160 66
128160 62
128640 69
128640 67
128880 67
128880 69
129120 69
129120 67
129360 67
129360 69
130560 62
130560 66
131040 66
131040 62
131040 84
131280 84
131280 86
131520 86
131520 87
131760 87
131760 89
131880 89
131880 87
132000 87
132000 86
132240 86
132240 84
132480 84
132480 86
132720 86
132720 85
132960 85
132960 81
133200 81
133200 84
133440 84
133440 83
133680 83
133680 79
133920 79
133920 82
134160 82
134160 81
134400 81
134400 78
134640 78
134640 80
134880 80
134880 79
135120 79
135120 75
135360 75
136320 62
136320 66
136800 66
136800 62
137280 72
137280 68
137760 68
137760 72
137760 72
137760 68
138240 68
138240 72
139200 67
139200 71
139680 71
139680 67
140160 72
140160 68
140400 68
140400 72
140640 72
140640 68
140880 68
140880 72
142080 67
142080 71
142560 71
142560 67
142560 67
142560 75
142800 75
142800 78
143040 78
143040 67
143040 67
143040 79
143280 79
143280 74
143400 74
143400 75
143520 75
143520 67
143520 66
143520 72
143760 72
143760 74
144000 74
144000 66
144000 62
144000 70
144240 70
144240 74
144480 74
144480 62
144480 62
144480 69
144720 69
144720 74
144960 74
144960 62
144960 62
144960 70
145200 70
145200 74
145440 74
145440 62
145440 70
145440 79
145680 79
145680 81
145920 81
145920 70
145920 70
145920 82
146160 82
146160 77
146280 77
146280 79
146400 79
146400 70
146400 69
146400 75
146640 75
146640 77
146880 77
146880 69
146880 65
146880 74
147120 74
147120 77
147360 77
147360 65
147360 65
147360 73
147600 73
147600 77
147840 77
147840 65
147840 65
147840 74
148080 74
148080 77
148320 77
148320 65
148320 80
148560 80
148560 82
148800 82
148800 84
149040 84
149040 87
149160 87
149160 85
149220 85
149220 87
149280 87
149280 85
149520 85
149520 84
149760 84
149760 87
150000 87
150000 84
150120 84
150120 82
150180 82
150180 84
150240 84
150240 82
150480 82
150480 81
150720 81
150720 84
150960 84
150960 87
151200 87
151200 63
151440 63
151440 65
151680 65
151680 67
151920 67
151920 69
152040 69
152040 67
152160 67
152160 65
152400 65
152400 63
152640 63
153600 62
153600 66
154080 66
154080 62
154560 72
154560 69
154800 69
154800 72
155040 72
155040 69
155280 69
155280 72
156480 62
156480 66
156960 66
156960 62
157440 72
157440 69
157680 69
157680 72
157920 72
157920 69
158160 69
158160 72
159360 62
159360 66
159840 66
159840 62
159960 65
159960 62
160020 62
160020 65
160200 65
160200 62
160260 62
160260 65
160440 65
160440 62
160500 62
160500 65
160680 65
160680 62
160740 62
160740 65
160920 65
160920 62
160980 62
160980 65
161160 65
161160 62
161220 62
161220 65
161400 65
161400 60
161400 57
161460 57
161460 60
161460 65
161640 60
161640 65
161640 57
161700 57
161700 65
161700 60
161880 60
161880 65
161880 57
161940 57
161940 65
161940 60
162120 60
162120 65
162120 57
162180 57
162180 65
162180 60
162360 60
162360 65
162360 57
162420 57
162420 65
162420 60
162600 60
162600 65
162600 57
162660 57
162660 65
162660 60
162840 61
162840 67
162840 58
162900 58
162900 67
162900 61
163080 61
163080 67
163080 58
163140 58
163140 67
163140 61
163320 61
163320 67
163320 58
163380 58
163380 67
163380 61
163560 61
163560 67
163560 58
163620 58
163620 67
163620 61
163800 61
163800 67
163800 58
163860 58
163860 67
163860 61
164040 61
164040 67
164040 58
164100 58
164100 67
164100 61
164160 86
165120 86
165120 84
165360 84
165360 86
165600 86
165600 89
166440 86
166500 86
166500 89
166500 87
166560 87
166560 86
166800 86
166800 84
167040 84
167040 86
168000 86
168000 57
168000 62
168000 66
168480 66
168480 66
168480 69
169920 69
169920 57
169920 62
169920 66
169920 86
170880 86
170880 84
171120 84
171120 86
171360 86
171360 89
172200 86
172260 86
172260 89
172260 87
172320 87
172320 86
172560 86
172560 84
172800 84
172800 86
173760 86
173760 57
173760 61
173760 67
174240 67
174240 61
174240 62
174240 66
175680 66
175680 62
175680 57
175800 62
175860 62
176040 62
176100 62
176280 62
176340 62
176520 62
176580 62
176760 62
176820 62
177000 62
177060 62
177240 62
177300 62
177480 62
177540 62
177720 62
177780 62
177960 62
178020 62
178200 62
178260 62
178440 62
178500 62
178680 62
178740 62
178920 62
178980 62
179160 62
179220 62
179400 62
179460 62
179640 62
179700 62
179880 62
179940 62
180120 62
180180 62
180360 62
180420 62
180600 62
180660 62
180840 62
180900 62
181080 62
181140 62
181320 62
181380 62
181560 62
181620 62
181800 62
181860 62
182040 62
182100 62
182280 62
182340 62
182520 62
182580 62
182760 62
182820 62
183000 62
183060 62
183240 62
183300 62
183480 62
183540 62
183720 62
183780 62
183960 62
184020 62
184200 62
184260 62
184440 62
184500 62
184680 62
184740 62
184920 62
184980 62
185160 62
185220 62
185400 62
185460 62
185640 62
185700 62
185880 62
185940 62
186120 62
186180 62
186360 62
186420 62
186600 62
186660 62
186840 62
186900 62
187080 62
187140 62
187320 62
187380 62
187560 62
187620 62
187800 62
187860 62
188040 62
188100 62
188280 62
188340 62
188520 62
188580 62
188760 62
188820 62
189000 62
189060 62
189240 62
189300 62
189480 62
189540 62
189720 62
189780 62
189960 62
190020 62
190200 62
190260 62
190440 62
190500 62
190680 62
190740 62
190920 62
190980 62
191160 62
191220 62
191400 62
191460 62
191640 62
191700 62
191880 62
191940 62
192120 62
192180 62
192360 62
192420 62
192600 62
192660 62
192840 62
192900 62
193080 62
193140 62
193320 62
193380 62
193560 62
193620 62
193800 62
193860 62
194040 62
194100 62
194280 62
194340 62
194520 62
194580 62
194760 62
194820 62
195000 62
195060 62
195240 62
195300 62
195480 62
195540 62
195720 62
195780 62
195960 62
196020 62
196200 62
196260 62
196440 62
196500 62
196680 62
196740 62
196920 62
196980 62
197160 62
197220 62
197400 62
197460 62
197640 62
197700 62
197880 62
197940 62
198120 62
198180 62
198360 62
198420 62
198600 62
198660 62
198840 74
198840 62
198900 62
198900 74
199080 74
199080 62
199140 62
199140 74
199320 74
199320 62
199380 62
199380 74
199560 74
199560 62
199620 62
199620 74
199800 74
199800 62
199860 62
199860 74
200040 74
200040 62
200100 62
200100 74
200280 74
200280 62
200340 62
200340 74
200520 74
200520 62
200580 62
200580 74
200760 74
200760 62
200820 62
200820 74
201000 74
201000 62
201060 62
201060 74
201240 74
201240 62
201300 62
201300 74
201480 74
201480 62
201540 62
201540 74
201720 74
201720 62
201780 62
201780 74
201960 74
201960 62
202020 62
202020 74
202200 74
202200 62
202260 62
202260 74
202440 74
202440 62
202500 62
202500 74
202680 74
202680 62
202740 62
202740 74
202920 74
202920 62
202980 62
202980 74
203160 74
203160 62
203220 62
203220 74
203400 74
203400 62
203460 62
203460 74
203640 74
203640 62
203700 62
203700 74
203880 74
203880 62
203940 62
203940 74
204120 74
204120 62
204180 62
204180 74
204360 74
204360 62
204420 62
204420 74
204600 74
204600 62
204660 62
204660 74
204840 74
204840 62
204900 62
204900 74
205080 74
205080 62
205140 62
205140 74
205320 74
205320 62
205380 62
205380 74
205560 74
205560 62
205620 62
205620 74
205800 74
205800 62
205860 62
205860 74
206040 74
206040 62
206100 62
206100 74
206280 74
206280 62
206340 62
206340 74
206520 74
206520 62
206580 62
206580 74
206760 74
206760 62
206820 62
206820 74
207000 74
207000 62
207060 62
207060 74
207240 74
207240 62
207300 62
207300 74
207480 74
207480 62
207540 62
207540 74
207720 74
207720 62
207780 62
207780 74
207960 74
207960 62
208020 62
208020 74
208200 74
208200 62
208260 62
208260 74
208440 74
208440 62
208500 62
208500 74
208680 74
208680 62
208740 62
208740 74
208920 74
208920 62
208980 62
208980 74
209160 74
209160 62
209220 62
209220 74
209400 74
209400 62
209460 62
209460 74
209640 74
209640 62
209700 62
209700 74
209880 74
209880 62
209940 62
209940 74
210120 74
210120 62
210180 62
210180 74
210360 86
210360 81
210360 78
210360 74
210420 74
210420 86
210420 81
210420 78
210600 74
210600 62
210660 62
210660 74
210840 74
210840 62
210900 62
210900 74
211080 74
211080 62
211140 62
211140 74
211320 74
211320 62
211380 62
211380 74
211560 74
211560 62
211620 62
211620 74
211800 86
211800 81
211800 78
211800 74
211860 74
211860 86
211860 81
211860 78
212040 74
212040 62
212100 62
212100 74
212280 74
212280 62
212340 62
212340 74
212520 74
212520 62
212580 62
212580 74
212760 74
212760 62
212820 62
212820 74
213000 74
213000 62
213060 62
213060 74
213240 86
213240 81
213240 78
213240 74
213300 74
213300 86
213300 81
213300 78
213480 74
213480 62
213540 62
213540 74
213720 74
213720 62
213780 62
213780 74
213960 74
213960 62
214020 62
214020 74
214200 74
214200 62
214260 62
214260 74
214440 74
214440 62
214500 62
214500 74
214680 74
214680 62
214740 62
214740 74
214920 74
214920 62
214980 62
214980 74
215160 74
215160 62
215220 62
215220 74
215400 74
215400 62
215460 62
215460 74
215640 74
215640 62
215700 62
215700 74
215880 74
215880 62
215940 62
215940 74
216120 86
216120 81
216120 78
216120 74
216180 74
216180 86
216180 81
216180 78
216360 74
216360 62
216420 62
216420 74
216600 74
216600 62
216660 62
216660 74
216840 74
216840 62
216900 62
216900 74
217080 74
217080 62
217140 62
217140 74
217320 74
217320 62
217380 62
217380 74
217560 86
217560 81
217560 78
217560 74
217620 74
217620 86
217620 81
217620 78
217800 74
217800 62
217860 62
217860 74
218040 74
218040 62
218100 62
218100 74
218280 74
218280 62
218340 62
218340 74
218520 74
218520 62
218580 62
218580 74
218760 74
218760 62
218820 62
218820 74
219000 86
219000 81
219000 78
219000 74
219060 74
219060 86
219060 81
219060 78
219240 74
219240 62
219300 62
219300 74
219480 74
219480 62
219540 62
219540 74
219720 74
219720 62
219780 62
219780 74
219960 74
219960 62
220020 62
220020 74
220200 74
220200 62
220260 62
220260 74
220440 74
220440 62
220500 62
220500 74
220680 74
220680 62
220740 62
220740 74
220920 74
220920 62
220980 62
220980 74
221160 74
221160 62
221220 62
221220 74
221400 74
221400 62
221460 62
221460 74
221640 74
221640 62
221700 62
221700 74
221880 91
221880 86
221880 82
221880 79
221940 79
221940 91
221940 86
221940 82
222120 74
222120 62
222180 62
222180 74
222360 74
222360 62
222420 62
222420 74
222600 74
222600 62
222660 62
222660 74
222840 74
222840 62
222900 62
222900 74
223080 74
223080 62
223140 62
223140 74
223320 91
223320 86
223320 82
223320 79
223380 79
223380 91
223380 86
223380 82
223560 74
223560 62
223620 62
223620 74
223800 74
223800 62
223860 62
223860 74
224040 74
224040 62
224100 62
224100 74
224280 74
224280 62
224340 62
224340 74
224520 74
224520 62
224580 62
224580 74
224760 91
224760 86
224760 82
224760 79
224820 79
224820 91
224820 86
224820 82
225000 74
225000 62
225060 62
225060 74
225240 74
225240 62
225300 62
225300 74
225480 74
225480 62
225540 62
225540 74
225720 74
225720 62
225780 62
225780 74
225960 74
225960 62
226020 62
226020 74
226200 74
226200 62
226260 62
226260 74
226440 74
226440 62
226500 62
226500 74
226680 74
226680 62
226740 62
226740 74
226920 74
226920 62
226980 62
226980 74
227160 74
227160 62
227220 62
227220 74
227400 74
227400 62
227460 62
227460 74
227640 91
227640 87
227640 82
227640 79
227700 79
227700 91
227700 87
227700 82
227880 75
227880 63
227940 63
227940 75
228120 75
228120 63
228180 63
228180 75
228360 75
228360 63
228420 63
228420 75
228600 75
228600 63
228660 63
228660 75
228840 75
228840 63
228900 63
228900 75
229080 91
229080 87
229080 82
229080 79
229140 79
229140 91
229140 87
229140 82
229320 75
229320 63
229380 63
229380 75
229560 75
229560 63
229620 63
229620 75
229800 75
229800 63
229860 63
229860 75
230040 75
230040 63
230100 63
230100 75
230280 75
230280 63
230340 63
230340 75
230520 91
230520 87
230520 82
230520 79
230580 79
230580 91
230580 87
230580 82
230760 75
230760 63
230820 63
230820 75
231000 75
231000 63
231060 63
231060 75
231240 75
231240 63
231300 63
231300 75
231480 75
231480 63
231540 63
231540 75
231720 75
231720 63
231780 63
231780 75
231960 75
231960 63
232020 63
232020 75
232200 75
232200 63
232260 63
232260 75
232440 75
232440 63
232500 63
232500 75
232680 75
232680 63
232740 63
232740 75
232920 75
232920 63
232980 63
232980 75
233160 75
233160 63
233220 63
233220 75
233400 98
233400 93
233400 90
233400 86
233460 86
233460 98
233460 93
233460 90
233640 74
233640 62
233700 62
233700 74
233880 74
233880 62
233940 62
233940 74
234120 74
234120 62
234180 62
234180 74
234360 74
234360 62
234420 62
234420 74
234600 74
234600 62
234660 62
234660 74
234840 99
234840 94
234840 91
234840 87
234900 87
234900 99
234900 94
234900 91
235080 75
235080 63
235140 63
235140 75
235320 75
235320 63
235380 63
235380 75
235560 75
235560 63
235620 63
235620 75
235800 75
235800 63
235860 63
235860 75
236040 75
236040 63
236100 63
236100 75
236280 98
236280 93
236280 90
236280 86
236340 86
236340 98
236340 93
236340 90
236520 74
236520 62
236580 62
236580 74
236760 74
236760 62
236820 62
236820 74
237000 74
237000 62
237060 62
237060 74
237240 74
237240 62
237300 62
237300 74
237480 74
237480 62
237540 62
237540 74
237720 99
237720 94
237720 91
237720 87
237780 87
237780 99
237780 94
237780 91
237960 75
237960 63
238020 63
238020 75
238200 75
238200 63
238260 63
238260 75
238440 75
238440 63
238500 63
238500 75
238680 75
238680 63
238740 63
238740 75
238920 75
238920 63
238980 63
238980 75
239160 98
239160 93
239160 90
239160 86
239220 86
239220 98
239220 93
239220 90
239400 74
239400 62
239460 62
239460 74
239640 74
239640 62
239700 62
239700 74
239880 74
239880 62
239940 62
239940 74
240120 74
240120 62
240180 62
240180 74
240360 74
240360 62
240420 62
240420 74
240600 74
240600 62
240660 62
240660 74
240840 74
240840 62
240900 62
240900 74
241080 74
241080 62
241140 62
241140 74
241320 74
241320 62
241380 62
241380 74
241560 74
241560 62
241620 62
241620 74
241800 74
241800 62
241860 62
241860 74
242040 74
242040 62
242100 62
242100 74
242280 74
242280 62
242340 62
242340 74
242520 74
242520 62
242580 62
242580 74
242760 74
242760 62
242820 62
242820 74
243000 74
243000 62
243060 62
243060 74
243240 74
243240 62
243300 62
243300 74
243480 62
243480 74
243540 74
243540 62
243720 74
243720 62
243780 62
243780 74
243960 74
243960 62
244020 62
244020 74
244200 74
244200 62
244260 62
244260 74
244440 74
244440 62
244500 62
244500 74
244680 74
244680 62
244740 62
244740 74
244920 74
244920 62
244980 62
244980 74
245160 62
245220 62
245400 62
245460 62
245640 62
245700 62
245880 62
245940 62
246120 62
246180 62
246360 62
246420 62
246600 62
246660 62
246840 62
246900 62
247080 62
247140 62
247320 62
247380 62
247560 62
247620 62
247800 62
247860 62
248040 62
248100 62
248280 62
248340 62
248520 62
248580 62
248760 62
248820 62
249000 62
249060 62
249240 62
249300 62
249480 62
249540 62
249720 62
249780 62
249960 62
250020 62
250200 62
250260 62
250440 62
250500 62
250680 54
250680 57
250740 57
250740 54
250920 54
250920 57
250980 57
250980 54
251160 54
251160 57
251220 57
251220 54
251400 54
251400 57
251460 57
251460 54
251640 54
251640 57
251700 57
251700 54
251880 54
251880 57
251940 57
251940 54
252120 55
252120 58
252180 58
252180 55
252360 55
252360 58
252420 58
252420 55
252600 55
252600 58
252660 58
252660 55
252840 55
252840 58
252900 58
252900 55
253080 55
253080 58
253140 58
253140 55
253320 55
253320 58
253380 58
253380 55
253560 54
253560 57
253620 57
253620 54
253800 54
253800 57
253860 57
253860 54
254040 54
254040 57
254100 57
254100 54
254280 54
254280 57
254340 57
254340 54
254520 54
254520 57
254580 57
254580 54
254760 54
254760 57
254820 57
254820 54
255000 55
255000 58
255060 58
255060 55
255240 55
255240 58
255300 58
255300 55
255480 55
255480 58
255540 58
255540 55
255720 55
255720 58
255780 58
255780 55
255960 55
255960 58
256020 58
256020 55
256200 55
256200 58
256260 58
256260 55
256440 54
256440 57
256500 57
256500 54
256680 54
256680 57
256740 57
256740 54
256920 54
256920 57
256980 57
256980 54
257160 54
257160 57
257220 57
257220 54
257400 54
257400 57
257460 57
257460 54
257640 54
257640 57
257700 57
257700 54
257880 54
257880 57
257940 57
257940 54
258120 54
258120 57
258180 57
258180 54
258360 54
258360 57
258420 57
258420 54
258600 54
258600 57
258660 57
258660 54
258840 54
258840 57
258900 57
258900 54
259080 54
259080 57
259140 57
259140 54
259320 54
259380 54
259560 57
259620 57
259800 62
259860 62
260040 66
260100 66
260280 69
260340 69
260520 74
260580 74
260760 78
260820 78
261000 81
261060 81
261240 86
261300 86
261480 90
261540 90
261720 93
261780 93
261960 98
262020 98
262080 86
262080 90
262080 98
264000 98
264000 90
264000 86
264480 62
264960 62
264960 55
264960 58
264960 67
265920 58
265920 55
265920 60
266400 60
266400 67
266400 62
266400 58
267840 58
267840 62
267840 55
267840 63
268800 55
268800 57
269280 57
269280 63
269280 58
269280 55
270720 55
270720 58
270720 63
270720 68
271680 63
271680 64
272160 64
272160 68
272160 63
272160 68
273120 68
273120 67
273600 67
273600 63
273600 63
273600 67
275040 67
275040 66
275520 63
275520 62
276000 62
276000 60
276480 60
276480 66
276600 62
276660 62
276840 62
276900 62
277080 62
277140 62
277320 62
277380 62
277560 62
277620 62
277800 62
277860 62
278040 62
278100 62
278280 62
278340 62
278520 62
278580 62
278760 62
278820 62
279000 62
279060 62
279240 62
279300 62
279480 67
279480 62
279540 62
279540 67
279720 67
279720 62
279780 62
279780 67
279960 67
279960 62
280020 62
280020 67
280200 67
280200 62
280260 62
280260 67
280440 67
280440 62
280500 62
280500 67
280680 67
280680 62
280740 62
280740 67
280920 67
280920 62
280980 62
280980 67
281160 67
281160 62
281220 62
281220 67
281400 67
281400 62
281460 62
281460 67
281640 67
281640 62
281700 62
281700 67
281880 67
281880 62
281940 62
281940 67
282120 67
282120 62
282180 62
282180 67
282240 91
282240 86
282240 79
283680 79
283680 86
283680 91
283680 55
285120 55
