1 66
1 71
120 62
121 66
240 62
480 73
481 71
600 73
600 74
660 74
720 76
780 76
840 78
900 78
960 81
1020 81
1080 79
1140 79
1200 78
1260 78
1320 76
1380 76
1440 79
1500 79
1560 78
1620 78
1680 76
1740 76
1800 74
1860 74
1920 71
1920 76
2040 71
2040 67
2160 67
2400 76
2400 78
2520 78
2520 79
2580 79
2640 81
2700 81
2760 83
2820 83
2880 86
2940 86
3000 85
3060 85
3120 83
3180 83
3240 82
3300 82
3360 78
3360 83
3480 83
3480 78
3480 74
3600 74
3600 71
3660 71
3720 66
3780 66
3841 66
3841 71
3960 62
3961 66
4080 62
4320 73
4321 71
4440 73
4440 74
4500 74
4560 76
4620 76
4680 78
4740 78
4800 81
4860 81
4920 79
4980 79
5040 78
5100 78
5160 76
5220 76
5280 79
5340 79
5400 78
5460 78
5520 76
5580 76
5640 74
5700 74
5760 71
5760 76
5880 71
5880 67
6000 67
6240 76
6240 78
6360 78
6360 79
6420 79
6480 81
6540 81
6600 83
6660 83
6720 86
6780 86
6840 85
6900 85
6960 83
7020 83
7080 82
7140 82
7200 78
7200 83
7320 83
7320 78
7320 74
7440 74
7440 71
7500 71
7560 66
7620 66
7680 74
7680 79
7800 74
7800 71
7920 71
8160 79
8160 69
8280 69
8280 71
8340 71
8400 73
8460 73
8520 74
8580 74
8640 78
8700 78
8760 76
8820 76
8880 74
8940 74
9000 72
9060 72
9120 71
9180 71
9240 69
9300 69
9360 67
9420 67
9480 66
9540 66
9600 64
9600 67
9720 64
9720 59
9840 59
10080 67
10080 66
10200 66
10200 67
10260 67
10320 69
10380 69
10440 71
10500 71
10560 74
10620 74
10680 72
10740 72
10800 71
10860 71
10920 69
10980 69
11040 67
11100 67
11160 66
11220 66
11280 64
11340 64
11400 63
11460 63
11520 60
11520 64
11640 60
11640 55
11760 55
12000 64
12000 62
12120 64
12240 64
12240 62
12240 59
12240 65
12360 65
12360 67
12480 67
12480 59
12480 60
12480 64
12600 60
12600 55
12720 55
12960 64
12960 65
13080 67
13200 67
13200 65
13200 62
13200 69
13320 69
13320 71
13440 71
13440 62
13440 67
13440 72
13560 67
13560 64
13680 64
13920 72
13920 70
13920 76
14040 64
14160 64
15360 76
15360 70
15361 66
15361 71
15480 62
15481 66
15600 62
15840 73
15841 71
15960 73
15960 74
16020 74
16080 76
16140 76
16200 78
16260 78
16320 81
16380 81
16440 79
16500 79
16560 78
16620 78
16680 76
16740 76
16800 79
16860 79
16920 78
16980 78
17040 76
17100 76
17160 74
17220 74
17280 71
17280 76
17400 71
17400 67
17520 67
17760 76
17760 78
17880 78
17880 79
17940 79
18000 81
18060 81
18120 83
18180 83
18240 86
18300 86
18360 85
18420 85
18480 83
18540 83
18600 82
18660 82
18720 78
18720 83
18840 83
18840 78
18840 74
18960 74
18960 71
19020 71
19080 66
19140 66
19200 74
19200 79
19320 74
19320 71
19440 71
19680 79
19680 69
19800 69
19800 71
19860 71
19920 73
19980 73
20040 74
20100 74
20160 78
20220 78
20280 76
20340 76
20400 74
20460 74
20520 72
20580 72
20640 71
20700 71
20760 69
20820 69
20880 67
20940 67
21000 66
21060 66
21120 64
21120 67
21240 64
21240 59
21360 59
21600 67
21600 66
21720 66
21720 67
21780 67
21840 69
21900 69
21960 71
22020 71
22080 74
22140 74
22200 72
22260 72
22320 71
22380 71
22440 69
22500 69
22560 67
22620 67
22680 66
22740 66
22800 64
22860 64
22920 63
22980 63
23040 60
23040 64
23160 60
23160 55
23280 55
23520 64
23520 62
23640 64
23760 64
23760 62
23760 59
23760 65
23880 65
23880 67
24000 67
24000 59
24000 60
24000 64
24120 60
24120 55
24240 55
24480 64
24480 65
24600 67
24720 67
24720 65
24720 62
24720 69
24840 69
24840 71
24960 71
24960 62
24960 67
24960 72
25080 67
25080 64
25200 64
25440 72
25440 70
25440 76
25560 64
25680 64
26880 76
26880 70
26881 66
26881 71
27000 62
27001 66
27120 62
27360 73
27361 71
27480 73
27480 74
27540 74
27600 76
27660 76
27720 78
27780 78
27840 81
27900 81
27960 79
28020 79
28080 78
28140 78
28200 76
28260 76
28320 79
28380 79
28440 78
28500 78
28560 76
28620 76
28680 74
28740 74
28800 71
28800 76
28920 71
28920 67
29040 67
29280 76
29280 78
29400 78
29400 79
29460 79
29520 81
29580 81
29640 83
29700 83
29760 86
29820 86
29880 85
29940 85
30000 83
30060 83
30120 82
30180 82
30240 83
30480 83
